<svg xmlns="http://www.w3.org/2000/svg" xmlns:xlink="http://www.w3.org/1999/xlink" width="24" height="24" viewBox="0 0 24 24">
  <defs>
    <path id="add_circle_outline-a" d="M13,7 L11,7 L11,11 L7,11 L7,13 L11,13 L11,17 L13,17 L13,13 L17,13 L17,11 L13,11 L13,7 Z M12,2 C6.48,2 2,6.48 2,12 C2,17.52 6.48,22 12,22 C17.52,22 22,17.52 22,12 C22,6.48 17.52,2 12,2 Z M12,20 C7.59,20 4,16.41 4,12 C4,7.59 7.59,4 12,4 C16.41,4 20,7.59 20,12 C20,16.41 16.41,20 12,20 Z"/>
  </defs>
  <g fill="none" fill-rule="evenodd">
    <mask id="add_circle_outline-b" fill="#fff">
      <use xlink:href="#add_circle_outline-a"/>
    </mask>
    <use fill="#595868" fill-rule="nonzero" xlink:href="#add_circle_outline-a"/>
  </g>
</svg>
