<svg xmlns="http://www.w3.org/2000/svg" xmlns:xlink="http://www.w3.org/1999/xlink" width="24" height="24" viewBox="0 0 24 24">
  <defs>
    <path id="add-todo-a" d="M20.5959184,1.8 L22.2269388,3.42857143 L10.8097959,14.5285714 L6.13714286,9.98571429 L7.76816327,8.35714286 L10.8097959,11.3142857 L20.5959184,1.8 Z M20.5959184,7.41428571 L20.5959184,10.7571429 C19.7583673,10.3714286 18.7885714,10.1571429 17.8187755,10.1142857 L20.5959184,7.41428571 Z M10.1044898,16.2857143 C10.0604082,16.6714286 10.0163265,17.0142857 10.0163265,17.4 C10.0163265,17.8285714 10.0604082,18.2571429 10.1485714,18.6857143 L2.08163265,18.6857143 C1.59673469,18.6857143 1.2,18.3 1.2,17.8285714 L1.2,4.11428571 C1.2,3.64285714 1.59673469,3.25714286 2.08163265,3.25714286 L16.6285714,3.25714286 L10.8097959,8.95714286 L9.00244898,7.2 L7.72408163,5.95714286 L6.48979592,7.2 L4.85877551,8.82857143 L3.66857143,10.0285714 L4.90285714,11.2285714 L9.5755102,15.7714286 L10.1044898,16.2857143 Z M17.5102041,12.2571429 C20.4195918,12.2571429 22.8,14.5714286 22.8,17.4 C22.8,20.2285714 20.4195918,22.5428571 17.5102041,22.5428571 C14.6008163,22.5428571 12.2204082,20.2285714 12.2204082,17.4 C12.2204082,14.5714286 14.6008163,12.2571429 17.5102041,12.2571429 Z M20.5959184,17.8285714 L20.5959184,16.9714286 L17.9510204,16.9714286 L17.9510204,14.4 L17.0693878,14.4 L17.0693878,16.9714286 L14.4244898,16.9714286 L14.4244898,17.8285714 L17.0693878,17.8285714 L17.0693878,20.4 L17.9510204,20.4 L17.9510204,17.8285714 L20.5959184,17.8285714 Z"/>
  </defs>
  <g fill="none" fill-rule="evenodd">
    <mask id="add-todo-b" fill="#fff">
      <use xlink:href="#add-todo-a"/>
    </mask>
    <use fill="#595868" fill-rule="nonzero" xlink:href="#add-todo-a"/>
  </g>
</svg>
