<?xml version="1.0" encoding="UTF-8"?>
<svg width="24px" height="24px" viewBox="0 0 24 24" version="1.1" xmlns="http://www.w3.org/2000/svg" xmlns:xlink="http://www.w3.org/1999/xlink">
    <!-- Generator: Sketch 54.1 (76490) - https://sketchapp.com -->
    <title>align_left</title>
    <desc>Created with Sketch.</desc>
    <g id="align_left" stroke="none" stroke-width="1" fill="none" fill-rule="evenodd">
        <rect id="Rectangle" fill="#595868" x="2" y="2" width="2" height="20"></rect>
        <rect id="Rectangle" fill="#595868" x="6" y="13" width="16" height="6"></rect>
        <rect id="Rectangle-Copy" fill="#595868" x="6" y="5" width="8" height="6"></rect>
    </g>
</svg>