<?xml version="1.0" encoding="UTF-8"?>
<svg width="24px" height="24px" viewBox="0 0 24 24" version="1.1" xmlns="http://www.w3.org/2000/svg" xmlns:xlink="http://www.w3.org/1999/xlink">
    <!-- Generator: Sketch 54.1 (76490) - https://sketchapp.com -->
    <title>align-vertical</title>
    <desc>Created with Sketch.</desc>
    <g id="align-vertical" stroke="none" stroke-width="1" fill="none" fill-rule="evenodd">
        <rect id="Rectangle" fill="#595868" x="2" y="11" width="20" height="2"></rect>
        <rect id="Rectangle" fill="#595868" x="5" y="2" width="6" height="8"></rect>
        <rect id="Rectangle-Copy" fill="#595868" x="5" y="14" width="6" height="8"></rect>
        <rect id="Rectangle-Copy-2" fill="#595868" x="13" y="14" width="6" height="4"></rect>
        <rect id="Rectangle-Copy-3" fill="#595868" x="13" y="6" width="6" height="4"></rect>
    </g>
</svg>