<svg xmlns="http://www.w3.org/2000/svg" width="24" height="24" viewBox="0 0 24 24">
  <g fill="none" fill-rule="evenodd">
    <polygon fill="#363545" fill-rule="nonzero" points="9.565 3.635 13.8 3.635 13.8 12.151 17.265 8.692 20.256 11.682 11.682 20.256 3.109 11.682 6.11 8.682 9.565 12.143"/>
    <polygon fill="#FFD200" fill-rule="nonzero" points="18.459 11.682 11.682 18.459 4.906 11.682 6.109 10.48 10.835 15.215 10.835 4.906 12.529 4.906 12.529 15.215 17.264 10.488"/>
  </g>
</svg>
