<svg xmlns="http://www.w3.org/2000/svg" xmlns:xlink="http://www.w3.org/1999/xlink" width="24" height="24" viewBox="0 0 24 24">
  <defs>
    <polygon id="arrow_forward-a" points="12 4 10.59 5.41 16.17 11 4 11 4 13 16.17 13 10.59 18.59 12 20 20 12"/>
  </defs>
  <g fill="none" fill-rule="evenodd">
    <mask id="arrow_forward-b" fill="#fff">
      <use xlink:href="#arrow_forward-a"/>
    </mask>
    <use fill="#595868" fill-rule="nonzero" xlink:href="#arrow_forward-a"/>
  </g>
</svg>
