<svg xmlns="http://www.w3.org/2000/svg" xmlns:xlink="http://www.w3.org/1999/xlink" width="24" height="24" viewBox="0 0 24 24">
  <defs>
    <polygon id="arrow_drop_down-a" points="7 9.5 12 14.5 17 9.5"/>
  </defs>
  <g fill="none" fill-rule="evenodd">
    <mask id="arrow_drop_down-b" fill="#fff">
      <use xlink:href="#arrow_drop_down-a"/>
    </mask>
    <use fill="#595868" fill-rule="nonzero" xlink:href="#arrow_drop_down-a"/>
  </g>
</svg>
