<?xml version="1.0" encoding="UTF-8"?>
<svg width="24px" height="24px" viewBox="0 0 24 24" version="1.1" xmlns="http://www.w3.org/2000/svg" xmlns:xlink="http://www.w3.org/1999/xlink">
    <!-- Generator: Sketch 53 (72520) - https://sketchapp.com -->
    <title>ic_ascending</title>
    <desc>Created with Sketch.</desc>
    <g id="ic_ascending" stroke="none" stroke-width="1" fill="none" fill-rule="evenodd">
        <path d="M19.3222656,11 L18.7011719,8.9609375 L15.578125,8.9609375 L14.9570312,11 L13,11 L16.0234375,2.3984375 L18.2441406,2.3984375 L21.2792969,11 L19.3222656,11 Z M18.2675781,7.4375 C17.6933565,5.58983451 17.3701175,4.54492309 17.2978516,4.30273438 C17.2255856,4.06054566 17.1738283,3.86914133 17.1425781,3.72851562 C17.0136712,4.22851813 16.6445343,5.46483389 16.0351562,7.4375 L18.2675781,7.4375 Z" id="A" fill="#363545" fill-rule="nonzero"></path>
        <polygon id="Z" fill="#363545" fill-rule="nonzero" points="20.5 21.5664062 13.5 21.5664062 13.5 20.3886719 18.0101103 14.5 13.6222426 14.5 13.6222426 13 20.3777574 13 20.3777574 14.171875 15.8740809 20.0664062 20.5 20.0664062"></polygon>
        <path d="M6,16 L6,2 L8,2 L8,16 L11,16 L7,22 L3,16 L6,16 Z" id="Combined-Shape" fill="#363545"></path>
    </g>
</svg>