<svg xmlns="http://www.w3.org/2000/svg" xmlns:xlink="http://www.w3.org/1999/xlink" width="24" height="24" viewBox="0 0 24 24">
  <defs>
    <path id="assignment_return-a" d="M19,4 L14.82,4 C14.4,2.84 13.3,2 12,2 C10.7,2 9.6,2.84 9.18,4 L5,4 C3.9,4 3,4.9 3,6 L3,20 C3,21.1 3.9,22 5,22 L19,22 C20.1,22 21,21.1 21,20 L21,6 C21,4.9 20.1,4 19,4 Z M12,4 C12.55,4 13,4.45 13,5 C13,5.55 12.55,6 12,6 C11.45,6 11,5.55 11,5 C11,4.45 11.45,4 12,4 Z M16,16 L12,16 L12,19 L7,14 L12,9 L12,12 L16,12 L16,16 Z"/>
  </defs>
  <g fill="none" fill-rule="evenodd">
    <mask id="assignment_return-b" fill="#fff">
      <use xlink:href="#assignment_return-a"/>
    </mask>
    <use fill="#595868" fill-rule="nonzero" xlink:href="#assignment_return-a"/>
  </g>
</svg>
