<svg xmlns="http://www.w3.org/2000/svg" xmlns:xlink="http://www.w3.org/1999/xlink" width="24" height="24" viewBox="0 0 24 24">
  <defs>
    <path id="beenhere-a" d="M19,1 L5,1 C3.9,1 3.01,1.9 3.01,3 L3,15.93 C3,16.62 3.35,17.23 3.88,17.59 L12,23 L20.11,17.59 C20.64,17.23 20.99,16.62 20.99,15.93 L21,3 C21,1.9 20.1,1 19,1 Z M10,16 L5,11 L6.41,9.59 L10,13.17 L17.59,5.58 L19,7 L10,16 Z"/>
  </defs>
  <g fill="none" fill-rule="evenodd">
    <mask id="beenhere-b" fill="#fff">
      <use xlink:href="#beenhere-a"/>
    </mask>
    <use fill="#595868" fill-rule="nonzero" xlink:href="#beenhere-a"/>
  </g>
</svg>
