<svg xmlns="http://www.w3.org/2000/svg" xmlns:xlink="http://www.w3.org/1999/xlink" width="24" height="24" viewBox="0 0 24 24">
  <defs>
    <path id="build-a" d="M22.7,19 L13.6,9.9 C14.5,7.6 14,4.9 12.1,3 C10.1,1 7.1,0.6 4.7,1.7 L9,6 L6,9 L1.6,4.7 C0.4,7.1 0.9,10.1 2.9,12.1 C4.8,14 7.5,14.5 9.8,13.6 L18.9,22.7 C19.3,23.1 19.9,23.1 20.3,22.7 L22.6,20.4 C23.1,20 23.1,19.3 22.7,19 Z"/>
  </defs>
  <g fill="none" fill-rule="evenodd">
    <mask id="build-b" fill="#fff">
      <use xlink:href="#build-a"/>
    </mask>
    <use fill="#595868" fill-rule="nonzero" xlink:href="#build-a"/>
  </g>
</svg>
