<svg xmlns="http://www.w3.org/2000/svg" xmlns:xlink="http://www.w3.org/1999/xlink" width="24" height="24" viewBox="0 0 24 24">
  <defs>
    <path id="call_split-a" d="M14,4 L16.29,6.29 L13.41,9.17 L14.83,10.59 L17.71,7.71 L20,10 L20,4 L14,4 Z M10,4 L4,4 L4,10 L6.29,7.71 L11,12.41 L11,20 L13,20 L13,11.59 L7.71,6.29 L10,4 Z"/>
  </defs>
  <g fill="none" fill-rule="evenodd">
    <mask id="call_split-b" fill="#fff">
      <use xlink:href="#call_split-a"/>
    </mask>
    <use fill="#595868" fill-rule="nonzero" xlink:href="#call_split-a"/>
  </g>
</svg>
