<svg xmlns="http://www.w3.org/2000/svg" xmlns:xlink="http://www.w3.org/1999/xlink" width="24" height="24" viewBox="0 0 24 24">
  <defs>
    <polygon id="call_missed-a" points="19.59 6.795 12 14.385 6.41 8.795 11 8.795 11 6.795 3 6.795 3 14.795 5 14.795 5 10.205 12 17.205 21 8.205"/>
  </defs>
  <g fill="none" fill-rule="evenodd">
    <mask id="call_missed-b" fill="#fff">
      <use xlink:href="#call_missed-a"/>
    </mask>
    <use fill="#595868" fill-rule="nonzero" xlink:href="#call_missed-a"/>
  </g>
</svg>
