<?xml version="1.0" encoding="UTF-8"?>
<svg width="24px" height="24px" viewBox="0 0 24 24" version="1.1" xmlns="http://www.w3.org/2000/svg" xmlns:xlink="http://www.w3.org/1999/xlink">
    <!-- Generator: Sketch 51.1 (57501) - http://www.bohemiancoding.com/sketch -->
    <title>ic/core/cart</title>
    <desc>Created with Sketch.</desc>
    <defs>
        <path d="M8,18 C6.9,18 6.01,18.9 6.01,20 C6.01,21.1 6.9,22 8,22 C9.1,22 10,21.1 10,20 C10,18.9 9.1,18 8,18 Z M2,2 L2,4 L4,4 L7.6,11.59 L6.25,14.04 C6.09,14.32 6,14.65 6,15 C6,16.1 6.9,17 8,17 L20,17 L20,15 L8.42,15 C8.28,15 8.17,14.89 8.17,14.75 L8.2,14.63 L9.1,13 L16.55,13 C17.3,13 17.96,12.59 18.3,11.97 L21.88,5.48 C21.96,5.34 22,5.17 22,5 C22,4.45 21.55,4 21,4 L6.21,4 L5.27,2 L2,2 Z M18,18 C16.9,18 16.01,18.9 16.01,20 C16.01,21.1 16.9,22 18,22 C19.1,22 20,21.1 20,20 C20,18.9 19.1,18 18,18 Z" id="path-1"></path>
    </defs>
    <g id="ic/core/cart" stroke="none" stroke-width="1" fill="none" fill-rule="evenodd">
        <mask id="mask-2" fill="white">
            <use xlink:href="#path-1"></use>
        </mask>
        <use id="ic_shopping_cart_24px" fill="#363545" fill-rule="nonzero" xlink:href="#path-1"></use>
    </g>
</svg>