<svg xmlns="http://www.w3.org/2000/svg" xmlns:xlink="http://www.w3.org/1999/xlink" width="24" height="24" viewBox="0 0 24 24">
  <defs>
    <path id="cb460-a" d="M21.1462586,13.1868499 L19.9995651,12.0664066 L21.1462586,10.9280257 C21.5977609,11.6188418 21.5977609,12.4960338 21.1462586,13.1868499 Z M18.2884937,13.7652279 L19.4356247,12.626847 L20.5635055,13.7652279 C19.8678769,14.2136678 18.9845598,14.2136678 18.2884937,13.7652279 Z M17.7057407,10.9096506 L18.8528716,12.0292189 L17.7057407,13.1680373 C17.2546758,12.4776587 17.2546758,11.6000292 17.7057407,10.9096506 Z M16.5778598,16.7332434 C16.5778598,16.9012443 16.4649842,17.0132449 16.3149209,17.0132449 L3.39897864,17.0132449 C3.24847786,17.0132449 3.13560227,16.9012443 3.13560227,16.752056 L3.13560227,7.40000729 C3.13560227,7.25081901 3.24847786,7.13881843 3.39897864,7.13881843 L16.3149209,7.13881843 C16.4649842,7.13881843 16.5778598,7.25081901 16.5778598,7.40000729 L16.5778598,16.7332434 Z M20.5635055,10.3308351 L19.4168121,11.469216 L18.2884937,10.3308351 C18.9845598,9.88283272 19.8678769,9.88283272 20.5635055,10.3308351 Z M21.9359502,6.6908161 C21.9359502,6.31762665 21.6165735,6 21.2403216,6 L2.75978781,6 C2.38353585,6 2.06372169,6.31762665 2.06372169,6.6908161 C1.31209277,10.2376471 1.31209277,13.8960411 2.06372169,17.4428721 C2.06372169,17.8160615 2.38353585,18.1336882 2.75978781,18.1336882 L21.2403216,18.1336882 C21.6165735,18.1336882 21.9359502,17.8160615 21.9359502,17.4428721 C22.6880166,13.8960411 22.6880166,10.2376471 21.9359502,6.6908161 Z"/>
  </defs>
  <g fill="none" fill-rule="evenodd">
    <mask id="cb460-b" fill="#fff">
      <use xlink:href="#cb460-a"/>
    </mask>
    <use fill="#595868" xlink:href="#cb460-a"/>
  </g>
</svg>
