<svg xmlns="http://www.w3.org/2000/svg" xmlns:xlink="http://www.w3.org/1999/xlink" width="24" height="24" viewBox="0 0 24 24">
  <defs>
    <path id="chat_bubble_outline-a" d="M20,2 L4,2 C2.9,2 2,2.9 2,4 L2,22 L6,18 L20,18 C21.1,18 22,17.1 22,16 L22,4 C22,2.9 21.1,2 20,2 Z M20,16 L6,16 L4,18 L4,4 L20,4 L20,16 Z"/>
  </defs>
  <g fill="none" fill-rule="evenodd">
    <mask id="chat_bubble_outline-b" fill="#fff">
      <use xlink:href="#chat_bubble_outline-a"/>
    </mask>
    <use fill="#595868" fill-rule="nonzero" xlink:href="#chat_bubble_outline-a"/>
  </g>
</svg>
