<svg xmlns="http://www.w3.org/2000/svg" xmlns:xlink="http://www.w3.org/1999/xlink" width="24" height="24" viewBox="0 0 24 24">
  <defs>
    <path id="chat-a" d="M20,2 L4,2 C2.9,2 2.01,2.9 2.01,4 L2,22 L6,18 L20,18 C21.1,18 22,17.1 22,16 L22,4 C22,2.9 21.1,2 20,2 Z M6,9 L18,9 L18,11 L6,11 L6,9 Z M14,14 L6,14 L6,12 L14,12 L14,14 Z M18,8 L6,8 L6,6 L18,6 L18,8 Z"/>
  </defs>
  <g fill="none" fill-rule="evenodd">
    <mask id="chat-b" fill="#fff">
      <use xlink:href="#chat-a"/>
    </mask>
    <use fill="#595868" fill-rule="nonzero" xlink:href="#chat-a"/>
  </g>
</svg>
