<svg xmlns="http://www.w3.org/2000/svg" xmlns:xlink="http://www.w3.org/1999/xlink" width="24" height="24" viewBox="0 0 24 24">
  <defs>
    <path id="check_circle-a" d="M12,2 C6.48,2 2,6.48 2,12 C2,17.52 6.48,22 12,22 C17.52,22 22,17.52 22,12 C22,6.48 17.52,2 12,2 Z M10,17 L5,12 L6.41,10.59 L10,14.17 L17.59,6.58 L19,8 L10,17 Z"/>
  </defs>
  <g fill="none" fill-rule="evenodd">
    <mask id="check_circle-b" fill="#fff">
      <use xlink:href="#check_circle-a"/>
    </mask>
    <use fill="#595868" fill-rule="nonzero" xlink:href="#check_circle-a"/>
  </g>
</svg>
