<?xml version="1.0" encoding="UTF-8"?>
<svg width="24px" height="24px" viewBox="0 0 24 24" version="1.1" xmlns="http://www.w3.org/2000/svg" xmlns:xlink="http://www.w3.org/1999/xlink">
    <!-- Generator: Sketch 51.1 (57501) - http://www.bohemiancoding.com/sketch -->
    <title>ic/viewers/clash_set</title>
    <desc>Created with Sketch.</desc>
    <defs>
        <path d="M23,13.705 L19.15,11.12 L22.12,7.545 L17.445,7.435 L17.995,2.815 L14.035,5.235 L12,1 L9.965,5.18 L6.005,2.76 L6.555,7.38 L1.88,7.49 L4.85,11.065 L1,13.65 L5.455,15.08 L3.64,19.37 L8.15,18.16 L8.92,22.725 L12.055,19.26 L15.19,22.725 L15.96,18.16 L20.47,19.37 L18.655,15.08 L23,13.705 Z M13.1,16.2625 L10.9,16.2625 L10.9,14.0625 L13.1,14.0625 L13.1,16.2625 Z M13.1,12.9625 L10.9,12.9625 L10.9,7.4625 L13.1,7.4625 L13.1,12.9625 Z" id="path-1"></path>
    </defs>
    <g id="ic/viewers/clash_set" stroke="none" stroke-width="1" fill="none" fill-rule="evenodd">
        <mask id="mask-2" fill="white">
            <use xlink:href="#path-1"></use>
        </mask>
        <use id="Mask" fill="#363545" fill-rule="nonzero" xlink:href="#path-1"></use>
    </g>
</svg>