<svg xmlns="http://www.w3.org/2000/svg" xmlns:xlink="http://www.w3.org/1999/xlink" width="24" height="24" viewBox="0 0 24 24">
  <defs>
    <polygon id="clear-a" points="19 6.41 17.59 5 12 10.59 6.41 5 5 6.41 10.59 12 5 17.59 6.41 19 12 13.41 17.59 19 19 17.59 13.41 12"/>
  </defs>
  <g fill="none" fill-rule="evenodd">
    <mask id="clear-b" fill="#fff">
      <use xlink:href="#clear-a"/>
    </mask>
    <use fill="#595868" fill-rule="nonzero" xlink:href="#clear-a"/>
  </g>
</svg>
