<svg xmlns="http://www.w3.org/2000/svg" xmlns:xlink="http://www.w3.org/1999/xlink" width="24" height="24" viewBox="0 0 24 24">
  <defs>
    <path id="close-a" d="M3.6,13.95 L20.4,13.95 C21.559798,13.95 22.5,13.009798 22.5,11.85 C22.5,10.690202 21.559798,9.75 20.4,9.75 L3.6,9.75 C2.44020203,9.75 1.5,10.690202 1.5,11.85 C1.5,13.009798 2.44020203,13.95 3.6,13.95 Z"/>
  </defs>
  <g fill="none" fill-rule="evenodd">
    <mask id="close-b" fill="#fff">
      <use xlink:href="#close-a"/>
    </mask>
    <use fill="#595868" fill-rule="nonzero" xlink:href="#close-a"/>
  </g>
</svg>
