<svg xmlns="http://www.w3.org/2000/svg" xmlns:xlink="http://www.w3.org/1999/xlink" width="24" height="24" viewBox="0 0 24 24">
  <defs>
    <path id="cloud_done-a" d="M19.35,10.04 C18.67,6.59 15.64,4 12,4 C9.11,4 6.6,5.64 5.35,8.04 C2.34,8.36 0,10.91 0,14 C0,17.31 2.69,20 6,20 L19,20 C21.76,20 24,17.76 24,15 C24,12.36 21.95,10.22 19.35,10.04 Z M10,17 L6.5,13.5 L7.91,12.09 L10,14.17 L15.18,9 L16.59,10.41 L10,17 Z"/>
  </defs>
  <g fill="none" fill-rule="evenodd">
    <mask id="cloud_done-b" fill="#fff">
      <use xlink:href="#cloud_done-a"/>
    </mask>
    <use fill="#595868" fill-rule="nonzero" xlink:href="#cloud_done-a"/>
  </g>
</svg>
