<svg xmlns="http://www.w3.org/2000/svg" xmlns:xlink="http://www.w3.org/1999/xlink" width="24" height="24" viewBox="0 0 24 24">
  <defs>
    <path id="cloud_queue-a" d="M19.35,10.04 C18.67,6.59 15.64,4 12,4 C9.11,4 6.6,5.64 5.35,8.04 C2.34,8.36 0,10.91 0,14 C0,17.31 2.69,20 6,20 L19,20 C21.76,20 24,17.76 24,15 C24,12.36 21.95,10.22 19.35,10.04 Z M19,18 L6,18 C3.79,18 2,16.21 2,14 C2,11.79 3.79,10 6,10 L6.71,10 C7.37,7.69 9.48,6 12,6 C15.04,6 17.5,8.46 17.5,11.5 L17.5,12 L19,12 C20.66,12 22,13.34 22,15 C22,16.66 20.66,18 19,18 Z"/>
  </defs>
  <g fill="none" fill-rule="evenodd">
    <mask id="cloud_queue-b" fill="#fff">
      <use xlink:href="#cloud_queue-a"/>
    </mask>
    <use fill="#595868" fill-rule="nonzero" xlink:href="#cloud_queue-a"/>
  </g>
</svg>
