<svg xmlns="http://www.w3.org/2000/svg" xmlns:xlink="http://www.w3.org/1999/xlink" width="24" height="24" viewBox="0 0 24 24">
  <defs>
    <path id="code-a" d="M9.4,16.6 L4.8,12 L9.4,7.4 L8,6 L2,12 L8,18 L9.4,16.6 Z M14.6,16.6 L19.2,12 L14.6,7.4 L16,6 L22,12 L16,18 L14.6,16.6 Z"/>
  </defs>
  <g fill="none" fill-rule="evenodd">
    <mask id="code-b" fill="#fff">
      <use xlink:href="#code-a"/>
    </mask>
    <use fill="#595868" fill-rule="nonzero" xlink:href="#code-a"/>
  </g>
</svg>
