<svg xmlns="http://www.w3.org/2000/svg" xmlns:xlink="http://www.w3.org/1999/xlink" width="24" height="24" viewBox="0 0 24 24">
  <defs>
    <path id="comment-a" d="M21.99,4 C21.99,2.9 21.1,2 20,2 L4,2 C2.9,2 2,2.9 2,4 L2,16 C2,17.1 2.9,18 4,18 L18,18 L22,22 L21.99,4 Z M18,14 L6,14 L6,12 L18,12 L18,14 Z M18,11 L6,11 L6,9 L18,9 L18,11 Z M18,8 L6,8 L6,6 L18,6 L18,8 Z"/>
  </defs>
  <g fill="none" fill-rule="evenodd">
    <mask id="comment-b" fill="#fff">
      <use xlink:href="#comment-a"/>
    </mask>
    <use fill="#595868" fill-rule="nonzero" xlink:href="#comment-a"/>
  </g>
</svg>
