<?xml version="1.0" encoding="UTF-8"?>
<svg width="24px" height="24px" viewBox="0 0 24 24" version="1.1" xmlns="http://www.w3.org/2000/svg" xmlns:xlink="http://www.w3.org/1999/xlink">
    <!-- Generator: Sketch 51.1 (57501) - http://www.bohemiancoding.com/sketch -->
    <title>ic/core/content_export</title>
    <desc>Created with Sketch.</desc>
    <defs></defs>
    <g id="ic/core/content_export" stroke="none" stroke-width="1" fill="none" fill-rule="evenodd">
        <path d="M18.0004,14.9997 L20.0004,14.9997 L20.0004,20.9997 L4.0004,20.9997 L4.0004,19.0007 L4.0004,14.9997 L5.9994,14.9997 L5.9994,19.0007 L18.0004,19.0007 L18.0004,14.9997 Z M11.0002,3 L13.0002,3 L13.0002,13 L15.9992,13 L12.0002,17 L7.9992,13 L11.0002,13 L11.0002,3 Z" id="Combined-Shape" fill="#363545"></path>
    </g>
</svg>