<?xml version="1.0" encoding="UTF-8"?>
<svg width="24px" height="24px" viewBox="0 0 24 24" version="1.1" xmlns="http://www.w3.org/2000/svg" xmlns:xlink="http://www.w3.org/1999/xlink">
    <!-- Generator: Sketch 51.1 (57501) - http://www.bohemiancoding.com/sketch -->
    <title>ic/core/content_export_alt</title>
    <desc>Created with Sketch.</desc>
    <defs>
        <path d="M5.0004,7.99 L1.0004,11.99 L5.0004,15.99 L5.0004,12.99 L15.0004,12.99 L15.0004,10.99 L5.0004,10.99 L5.0004,7.99 Z M21.0004,3 L9.0004,3 C7.8994,3 7.0004,3.9 7.0004,5 L7.0004,8.99 L9.0004,8.99 L9.0004,4.98 L21.0004,4.98 L21.0004,19.01 L9.0004,19.01 L9.0004,14.99 L7.0004,14.99 L7.0004,19 C7.0004,20.1 7.8994,20.98 9.0004,20.98 L21.0004,20.98 C22.1004,20.98 23.0004,20.1 23.0004,19 L23.0004,5 C23.0004,3.89 22.1004,3 21.0004,3 Z" id="path-1"></path>
    </defs>
    <g id="ic/core/content_export_alt" stroke="none" stroke-width="1" fill="none" fill-rule="evenodd">
        <mask id="mask-2" fill="white">
            <use xlink:href="#path-1"></use>
        </mask>
        <use id="Mask" fill="#363545" xlink:href="#path-1"></use>
    </g>
</svg>