<svg xmlns="http://www.w3.org/2000/svg" xmlns:xlink="http://www.w3.org/1999/xlink" width="24" height="24" viewBox="0 0 24 24">
  <defs>
    <path id="crop-a" d="M17,15 L19,15 L19,7 C19,5.9 18.1,5 17,5 L9,5 L9,7 L17,7 L17,15 Z M7,17 L7,1 L5,1 L5,5 L1,5 L1,7 L5,7 L5,17 C5,18.1 5.9,19 7,19 L17,19 L17,23 L19,23 L19,19 L23,19 L23,17 L7,17 Z"/>
  </defs>
  <g fill="none" fill-rule="evenodd">
    <mask id="crop-b" fill="#fff">
      <use xlink:href="#crop-a"/>
    </mask>
    <use fill="#595868" fill-rule="nonzero" xlink:href="#crop-a"/>
  </g>
</svg>
