<?xml version="1.0" encoding="utf-8"?>
<!-- Generator: Adobe Illustrator 22.0.1, SVG Export Plug-In . SVG Version: 6.00 Build 0)  -->
<svg version="1.1" id="Layer_1" xmlns="http://www.w3.org/2000/svg" xmlns:xlink="http://www.w3.org/1999/xlink" x="0px" y="0px"
	 viewBox="0 0 24 24" style="enable-background:new 0 0 24 24;" xml:space="preserve">
<title>ic/connect/device/device</title>
<desc>Created with Sketch.</desc>
<g id="ic_x2F_connect_x2F_device_x2F_device">
	<g id="Fill-37">
		<path id="path-1_1_" d="M17.8,19.6c0,0.6-0.5,1.1-1.1,1.1H7.2c-0.6,0-1.1-0.5-1.1-1.1V4c0-0.6,0.5-1.1,1.1-1.1h9.5
			c0.6,0,1.1,0.5,1.1,1.1V19.6z M18.3,1.5H5.6C5,1.5,4.5,2,4.5,2.6v18.8c0,0.6,0.5,1.1,1.1,1.1h12.6c0.6,0,1.1-0.5,1.1-1.1V2.6
			C19.4,2,18.9,1.5,18.3,1.5z"/>
	</g>
</g>
</svg>
