<?xml version="1.0" encoding="utf-8"?>
<!-- Generator: Adobe Illustrator 22.0.1, SVG Export Plug-In . SVG Version: 6.00 Build 0)  -->
<svg version="1.1" id="Layer_1" xmlns="http://www.w3.org/2000/svg" xmlns:xlink="http://www.w3.org/1999/xlink" x="0px" y="0px"
	 viewBox="0 0 24 24" style="enable-background:new 0 0 24 24;" xml:space="preserve">
<title>ic/connect/device/device_group</title>
<desc>Created with Sketch.</desc>
<g id="ic_x2F_connect_x2F_device_x2F_device_x5F_group">
	<g id="Combined-Shape">
		<path id="path-1_1_" d="M3.2,11.6c1.4,0,1.5,4.7,0.6,5.5c0,0-0.1,0-0.1,0.1c0,0,0,0-0.1,0c-0.3,0.2-0.4,0.6-0.4,0.9v2.4
			c0,0.7,0.5,1.2,1.1,1.2h4.5c0.6,0,1.1-0.5,1.1-1.2v-2.4c0-0.4-0.2-0.8-0.5-1c-0.8-0.6-0.9-5.5,0.5-5.5H3.2z M2.5,11.6
			c-0.6,0-1-0.5-1-1.1V5.5c0-0.6,0.5-1.1,1-1.1h8.1c0.6,0,1,0.5,1,1.1v5.1c0,0.6-0.5,1.1-1,1.1c-1.7,0-1.6,4.6-0.6,5.3
			c0.3,0.3,0.6,0.7,0.6,1.2v2.9c0,0.8-0.6,1.4-1.4,1.4H3.9c-0.7,0-1.4-0.6-1.4-1.4v-2.9c0-0.5,0.2-0.9,0.5-1.1c0,0,0,0,0.1-0.1
			c0,0,0.1-0.1,0.1-0.1C4.3,16,4.2,11.6,2.5,11.6z M5.6,3.7V2.6c0-0.6,0.5-1.1,1-1.1h11.5c0.6,0,1,0.5,1,1.1v9.8h-1.4V4
			c0-0.6-0.5-1.1-1-1.1H8c-0.4,0-0.8,0.3-1,0.7H5.6z M10.8,22.5c0.2-0.2,0.4-0.5,0.4-0.9h6.7c0.1,0,0.2-0.1,0.2-0.2c0,0,0,0,0,0
			v-7.2c0-0.1-0.1-0.2-0.2-0.2H10c0-0.3,0.1-0.6,0.1-0.9h11.4c0.3,0,0.5,0.2,0.5,0.5c0.6,2.8,0.6,5.6,0,8.3c0,0.3-0.2,0.5-0.5,0.5
			H10.8z M21.5,18.7c0.3-0.5,0.3-1.2,0-1.8l-0.9,0.9L21.5,18.7z M20.2,17.3l0.9-0.9c-0.5-0.3-1.2-0.3-1.7,0L20.2,17.3z M18.9,16.9
			c-0.3,0.5-0.3,1.2,0,1.8l0.9-0.9L18.9,16.9z M20.2,18.2l-0.9,0.9c0.5,0.3,1.2,0.3,1.7,0L20.2,18.2z M4,17.4c1-0.8,1-4,0.2-5.4H9
			c-0.3,0.5-0.4,1.3-0.4,2.2c-0.1,1.5,0.2,2.9,0.7,3.3c0.2,0.2,0.3,0.4,0.3,0.7v2.4c0,0.5-0.4,0.8-0.8,0.8H4.3
			c-0.4,0-0.8-0.4-0.8-0.8v-2.4c0-0.3,0.1-0.5,0.3-0.7c0,0,0,0,0,0C3.9,17.5,3.9,17.4,4,17.4L4,17.4z M5.6,12.7
			c-0.2,0-0.3,0.2-0.3,0.4v1.4c0,0.2,0.2,0.4,0.3,0.4h2c0.2,0,0.3-0.2,0.3-0.4v-1.4c0-0.2-0.2-0.4-0.3-0.4H5.6z M3.2,5.5
			c-0.4,0-0.7,0.3-0.7,0.7v3.6c0,0.4,0.3,0.7,0.7,0.7H10c0.4,0,0.7-0.3,0.7-0.7V6.2c0-0.4-0.3-0.7-0.7-0.7H3.2z"/>
	</g>
</g>
</svg>
