<?xml version="1.0" encoding="utf-8"?>
<!-- Generator: Adobe Illustrator 22.0.1, SVG Export Plug-In . SVG Version: 6.00 Build 0)  -->
<svg version="1.1" id="Layer_1" xmlns="http://www.w3.org/2000/svg" xmlns:xlink="http://www.w3.org/1999/xlink" x="0px" y="0px"
	 viewBox="0 0 24 24" style="enable-background:new 0 0 24 24;" xml:space="preserve">
<path d="M13,6c0-1.1,0.9-2,2-2s2,0.9,2,2s-0.9,2-2,2S13,7.1,13,6z M15,14c1.1,0,2-0.9,2-2s-0.9-2-2-2s-2,0.9-2,2S13.9,14,15,14z
	 M15,20c1.1,0,2-0.9,2-2s-0.9-2-2-2s-2,0.9-2,2S13.9,20,15,20z M9,16c-1.1,0-2,0.9-2,2s0.9,2,2,2s2-0.9,2-2S10.1,16,9,16z M9,14
	c1.1,0,2-0.9,2-2s-0.9-2-2-2s-2,0.9-2,2S7.9,14,9,14z M9,8c1.1,0,2-0.9,2-2s-0.9-2-2-2S7,4.9,7,6S7.9,8,9,8z"/>
</svg>
