<?xml version="1.0" encoding="UTF-8"?>
<svg width="24px" height="24px" viewBox="0 0 24 24" version="1.1" xmlns="http://www.w3.org/2000/svg" xmlns:xlink="http://www.w3.org/1999/xlink">
    <!-- Generator: Sketch 54.1 (76490) - https://sketchapp.com -->
    <title>draw_triangle</title>
    <desc>Created with Sketch.</desc>
    <g id="draw_triangle" stroke="none" stroke-width="1" fill="none" fill-rule="evenodd">
        <path d="M12.8654263,3.49482722 L22.130979,19.4989637 C22.4076937,19.9769255 22.2445507,20.5887116 21.766589,20.8654263 C21.6143236,20.9535799 21.4414953,21 21.2655527,21 L2.73444728,21 C2.18216253,21 1.73444728,20.5522847 1.73444728,20 C1.73444728,19.8240574 1.78086738,19.6512291 1.869021,19.4989637 L11.1345737,3.49482722 C11.4112884,3.01686548 12.0230745,2.85372251 12.5010363,3.13043721 C12.6522478,3.21798072 12.7778828,3.3436157 12.8654263,3.49482722 Z M12,6 L4.5,19 L19.5,19 L12,6 Z" id="Combined-Shape" fill="#595868"></path>
    </g>
</svg>