<svg xmlns="http://www.w3.org/2000/svg" xmlns:xlink="http://www.w3.org/1999/xlink" width="24" height="24" viewBox="0 0 24 24">
  <defs>
    <path id="dropdown-a" d="M8,11.5833333 L12,7 L16,11.5833333 L8,11.5833333 Z M8,13.4166667 L16,13.4166667 L12,18 L8,13.4166667 Z"/>
  </defs>
  <g fill="none" fill-rule="evenodd">
    <mask id="dropdown-b" fill="#fff">
      <use xlink:href="#dropdown-a"/>
    </mask>
    <use fill="#595868" fill-rule="nonzero" xlink:href="#dropdown-a"/>
  </g>
</svg>
