<svg xmlns="http://www.w3.org/2000/svg" xmlns:xlink="http://www.w3.org/1999/xlink" width="24" height="24" viewBox="0 0 24 24">
  <defs>
    <path id="email-a" d="M20,4 L4,4 C2.9,4 2.01,4.9 2.01,6 L2,18 C2,19.1 2.9,20 4,20 L20,20 C21.1,20 22,19.1 22,18 L22,6 C22,4.9 21.1,4 20,4 Z M20,8 L12,13 L4,8 L4,6 L12,11 L20,6 L20,8 Z"/>
  </defs>
  <g fill="none" fill-rule="evenodd">
    <mask id="email-b" fill="#fff">
      <use xlink:href="#email-a"/>
    </mask>
    <use fill="#595868" fill-rule="nonzero" xlink:href="#email-a"/>
  </g>
</svg>
