<svg xmlns="http://www.w3.org/2000/svg" xmlns:xlink="http://www.w3.org/1999/xlink" width="24" height="24" viewBox="0 0 24 24">
  <defs>
    <path id="expand_content-a" d="M8.29073773,6.25 L12.2907377,2.25 L16.2907377,6.25 L13.4335949,6.25 L13.4335949,10.8214286 L11.1478806,10.8214286 L11.1478806,6.25 L8.29073773,6.25 Z M16.25,17.3513979 L12.25,21.3513979 L8.25,17.3513979 L11.1071429,17.3513979 L11.1071429,12.7799693 L13.3928571,12.7799693 L13.3928571,17.3513979 L16.25,17.3513979 Z"/>
  </defs>
  <g fill="none" fill-rule="evenodd">
    <mask id="expand_content-b" fill="#fff">
      <use xlink:href="#expand_content-a"/>
    </mask>
    <use fill="#595868" transform="rotate(45 12.27 11.8)" xlink:href="#expand_content-a"/>
  </g>
</svg>
