<?xml version="1.0" encoding="UTF-8"?>
<svg width="24px" height="24px" viewBox="0 0 24 24" version="1.1" xmlns="http://www.w3.org/2000/svg" xmlns:xlink="http://www.w3.org/1999/xlink">
    <!-- Generator: Sketch 53 (72520) - https://sketchapp.com -->
    <title>explorer</title>
    <desc>Created with Sketch.</desc>
    <g id="explorer" stroke="none" stroke-width="1" fill="none" fill-rule="evenodd">
        <g transform="translate(1.000000, 2.000000)" fill="#000000" fill-rule="nonzero" id="Shape">
            <path d="M10.7,16.3 L2.2,16.3 C1.1,16.3 0.2,15.4 0.2,14.3 L0.2,2.3 C0.2,1.2 1.1,0.3 2.2,0.3 L8.2,0.3 L10.2,2.3 L18.2,2.3 C19.3,2.3 20.2,3.2 20.2,4.3 L20.2,11.4 C19.6,9 17.4,7.2 14.9,7.2 C11.9,7.2 9.4,9.7 9.4,12.7 C9.4,14.1 9.9,15.4 10.7,16.3 Z M21.8,18.2 L20.4,19.6 L17.3,16.5 C16.6,16.9 15.8,17.2 14.9,17.2 C12.4,17.2 10.4,15.2 10.4,12.7 C10.4,10.2 12.4,8.2 14.9,8.2 C17.4,8.2 19.4,10.2 19.4,12.7 C19.4,13.6 19.1,14.4 18.7,15.1 L21.8,18.2 Z M17.4,12.7 C17.4,11.3 16.3,10.2 14.9,10.2 C13.5,10.2 12.4,11.3 12.4,12.7 C12.4,14.1 13.5,15.2 14.9,15.2 C16.3,15.2 17.4,14.1 17.4,12.7 Z"></path>
        </g>
    </g>
</svg>