<?xml version="1.0" encoding="utf-8"?>
<!-- Generator: Adobe Illustrator 22.0.1, SVG Export Plug-In . SVG Version: 6.00 Build 0)  -->
<svg version="1.1" id="Layer_1" xmlns="http://www.w3.org/2000/svg" xmlns:xlink="http://www.w3.org/1999/xlink" x="0px" y="0px"
	 viewBox="0 0 24 24" style="enable-background:new 0 0 24 24;" xml:space="preserve">
<title>ic/content/folder_view_group</title>
<desc>Created with Sketch.</desc>
<g id="ic_x2F_content_x2F_folder_x5F_view_x5F_group">
	<g id="ic_perm_media_24px">
		<path id="path-1_1_" d="M2.8,6.5H1v4.6h0l0,8.3c0,1,0.8,1.8,1.8,1.8h16.5v-1.8H2.8V6.5z M21.2,4.7h-7.3L12,2.8H6.5
			c-1,0-1.8,0.8-1.8,1.8l0,11c0,1,0.8,1.8,1.8,1.8h14.7c1,0,1.8-0.8,1.8-1.8V6.5C23,5.5,22.2,4.7,21.2,4.7z M7.4,14.8l4.1-5.5
			l3.2,4.1l2.3-2.8l3.2,4.1H7.4z"/>
	</g>
</g>
</svg>
