<svg xmlns="http://www.w3.org/2000/svg" xmlns:xlink="http://www.w3.org/1999/xlink" width="24" height="24" viewBox="0 0 24 24">
  <defs>
    <path id="format_indent_increase-a" d="M3,21 L21,21 L21,19 L3,19 L3,21 Z M3,8 L3,16 L7,12 L3,8 Z M11,17 L21,17 L21,15 L11,15 L11,17 Z M3,3 L3,5 L21,5 L21,3 L3,3 Z M11,9 L21,9 L21,7 L11,7 L11,9 Z M11,13 L21,13 L21,11 L11,11 L11,13 Z"/>
  </defs>
  <g fill="none" fill-rule="evenodd">
    <mask id="format_indent_increase-b" fill="#fff">
      <use xlink:href="#format_indent_increase-a"/>
    </mask>
    <use fill="#595868" fill-rule="nonzero" xlink:href="#format_indent_increase-a"/>
  </g>
</svg>
