<svg xmlns="http://www.w3.org/2000/svg" xmlns:xlink="http://www.w3.org/1999/xlink" width="24" height="24" viewBox="0 0 24 24">
  <defs>
    <path id="format_textdirection_l_to_r-a" d="M8,10 L8,15 L10,15 L10,4 L12,4 L12,15 L14,15 L14,4 L16,4 L16,2 L8,2 C5.79,2 4,3.79 4,6 C4,8.21 5.79,10 8,10 Z M20,18 L16,14 L16,17 L4,17 L4,19 L16,19 L16,22 L20,18 Z"/>
  </defs>
  <g fill="none" fill-rule="evenodd">
    <mask id="format_textdirection_l_to_r-b" fill="#fff">
      <use xlink:href="#format_textdirection_l_to_r-a"/>
    </mask>
    <use fill="#595868" fill-rule="nonzero" xlink:href="#format_textdirection_l_to_r-a"/>
  </g>
</svg>
