<svg xmlns="http://www.w3.org/2000/svg" xmlns:xlink="http://www.w3.org/1999/xlink" width="24" height="24" viewBox="0 0 24 24">
  <defs>
    <path id="format_size-a" d="M8.5,4.5 L8.5,7.5 L13.5,7.5 L13.5,19.5 L16.5,19.5 L16.5,7.5 L21.5,7.5 L21.5,4.5 L8.5,4.5 Z M2.5,12.5 L5.5,12.5 L5.5,19.5 L8.5,19.5 L8.5,12.5 L11.5,12.5 L11.5,9.5 L2.5,9.5 L2.5,12.5 Z"/>
  </defs>
  <g fill="none" fill-rule="evenodd">
    <mask id="format_size-b" fill="#fff">
      <use xlink:href="#format_size-a"/>
    </mask>
    <use fill="#595868" fill-rule="nonzero" xlink:href="#format_size-a"/>
  </g>
</svg>
