<svg xmlns="http://www.w3.org/2000/svg" xmlns:xlink="http://www.w3.org/1999/xlink" width="24" height="24" viewBox="0 0 24 24">
  <defs>
    <polygon id="format_italic-a" points="10 5 10 8 12.21 8 8.79 16 6 16 6 19 14 19 14 16 11.79 16 15.21 8 18 8 18 5"/>
  </defs>
  <g fill="none" fill-rule="evenodd">
    <mask id="format_italic-b" fill="#fff">
      <use xlink:href="#format_italic-a"/>
    </mask>
    <use fill="#595868" fill-rule="nonzero" xlink:href="#format_italic-a"/>
  </g>
</svg>
