<svg xmlns="http://www.w3.org/2000/svg" xmlns:xlink="http://www.w3.org/1999/xlink" width="24" height="24" viewBox="0 0 24 24">
  <defs>
    <polygon id="forward-a" points="12 8 12 4 20 12 12 20 12 16 4 16 4 8"/>
  </defs>
  <g fill="none" fill-rule="evenodd">
    <mask id="forward-b" fill="#fff">
      <use xlink:href="#forward-a"/>
    </mask>
    <use fill="#595868" fill-rule="nonzero" xlink:href="#forward-a"/>
  </g>
</svg>
