<?xml version="1.0" encoding="UTF-8"?>
<svg width="24px" height="24px" viewBox="0 0 24 24" version="1.1" xmlns="http://www.w3.org/2000/svg" xmlns:xlink="http://www.w3.org/1999/xlink">
    <!-- Generator: Sketch 53 (72520) - https://sketchapp.com -->
    <title>front_view</title>
    <desc>Created with Sketch.</desc>
    <g id="front_view" stroke="none" stroke-width="1" fill="none" fill-rule="evenodd">
        <g transform="translate(3.000000, 2.000000)" fill="#000000" fill-rule="nonzero">
            <path d="M9.7,12.5 L9.7,10.1 C9.7,9.7 9.4,9.4 9,9.4 L0.7,9.4 C0.3,9.4 0,9.7 0,10.1 L0,17 C0,17.4 0.3,17.7 0.7,17.7 L9,17.7 C9.4,17.7 9.7,17.4 9.7,17 L9.7,14.6 L12.5,17.4 L12.5,9.8 L9.7,12.5 Z" id="Path"></path>
            <rect id="Rectangle" x="16" y="0.4" width="2" height="18"></rect>
        </g>
    </g>
</svg>