<svg xmlns="http://www.w3.org/2000/svg" xmlns:xlink="http://www.w3.org/1999/xlink" width="24" height="24" viewBox="0 0 24 24">
  <defs>
    <polygon id="functions-a" points="18 4 6 4 6 6 12.5 12 6 18 6 20 18 20 18 17 11 17 16 12 11 7 18 7"/>
  </defs>
  <g fill="none" fill-rule="evenodd">
    <mask id="functions-b" fill="#fff">
      <use xlink:href="#functions-a"/>
    </mask>
    <use fill="#595868" fill-rule="nonzero" xlink:href="#functions-a"/>
  </g>
</svg>
