<svg xmlns="http://www.w3.org/2000/svg" xmlns:xlink="http://www.w3.org/1999/xlink" width="24" height="24" viewBox="0 0 24 24">
  <defs>
    <path id="fxl-a" d="M14.4367813,8.87677054 L9.46954692,8.87677054 C9.09511155,8.32117284 8.45254021,7.95467422 7.72269686,7.95467422 C6.56704699,7.95467422 5.63020767,8.87356855 5.63020767,10.0070822 C5.63020767,11.1405958 6.56704699,12.0594901 7.72269686,12.0594901 C8.79628869,12.0594901 9.68104047,11.2664568 9.8012729,10.2450425 L14.1050554,10.2450425 C14.2252878,11.2664568 15.1100396,12.0594901 16.1836314,12.0594901 C17.3392813,12.0594901 18.2761206,11.1405958 18.2761206,10.0070822 C18.2761206,8.87356855 17.3392813,7.95467422 16.1836314,7.95467422 C15.453788,7.95467422 14.8112167,8.32117284 14.4367813,8.87677054 Z M3.7599338,5.06480703 L3.75,4.95785166 C3.75,3.90428226 5.89323109,1.5 6.94819439,1.5 L18.4568849,1.5 C19.5118482,1.5 20.375,2.36201133 20.375,3.41558074 L20.375,18.7402266 C20.375,19.4295783 20.0054761,20.036922 19.4544793,20.3744553 C19.5354892,20.1540432 19.5801356,19.9136326 19.5801356,19.6623229 L19.5801356,4.33767705 C19.5801356,3.28410765 18.7954521,2.42209632 17.8363946,2.42209632 L7.37394866,2.42209632 C6.74537553,2.42209632 6.19170627,2.79238059 5.88476474,3.34419263 L17.1768056,3.34419263 C18.2317689,3.34419263 19.0949207,4.20620397 19.0949207,5.25977337 L19.0949207,20.5844193 C19.0949207,21.6379887 18.2317689,22.5 17.1768056,22.5 L5.66811509,22.5 C4.61315179,22.5 3.75,21.6379887 3.75,20.5844193 L3.75,5.25977337 C3.75,5.19398322 3.75336576,5.12894002 3.7599338,5.06480703 Z M7.72269686,13.4872521 L5.63020767,17.592068 L16.79015,17.592068 L14.6976608,13.4872521 L7.72269686,13.4872521 Z"/>
  </defs>
  <g fill="none" fill-rule="evenodd">
    <mask id="fxl-b" fill="#fff">
      <use xlink:href="#fxl-a"/>
    </mask>
    <use fill="#595868" xlink:href="#fxl-a"/>
  </g>
</svg>
