<svg xmlns="http://www.w3.org/2000/svg" xmlns:xlink="http://www.w3.org/1999/xlink" width="24" height="24" viewBox="0 0 24 24">
  <defs>
    <path id="gps-a" d="M14.9735257,4.9183461 L9.15572247,10.7361493 L9.61872537,13.9820778 L12.8646538,14.4467167 L18.6824571,8.62891351 L14.9735257,4.9183461 Z M5.29300216,13.460177 L3.86309214,13.460177 C3.86309214,17.1478397 6.85216033,20.1385439 10.539823,20.1385439 L10.539823,18.7069978 C7.64728192,18.7069978 5.29300216,16.3527181 5.29300216,13.460177 L5.29300216,13.460177 Z M8.1560943,13.460177 L6.72454823,13.460177 C6.72454823,15.5674128 8.43258719,17.2754518 10.539823,17.2754518 L10.539823,15.8455418 C9.22607273,15.8455418 8.1560943,14.7755633 8.1560943,13.460177 L8.1560943,13.460177 Z M2.43154607,13.460177 L1,13.460177 C1,18.7282665 5.27173347,23 10.539823,23 L10.539823,21.5684539 C6.07012717,21.5684539 2.43154607,17.9315089 2.43154607,13.460177 L2.43154607,13.460177 Z M17.6190228,10.9373838 L14.5841452,13.9722615 L19.487395,18.8771473 L22.5222726,15.8406336 L17.6190228,10.9373838 Z M12.6650554,5.98178032 L7.68327508,1 L4.64676136,4.03651372 L9.62854168,9.01829404 L12.6650554,5.98178032 Z"/>
  </defs>
  <g fill="none" fill-rule="evenodd">
    <mask id="gps-b" fill="#fff">
      <use xlink:href="#gps-a"/>
    </mask>
    <use fill="#595868" xlink:href="#gps-a"/>
  </g>
</svg>
