<svg xmlns="http://www.w3.org/2000/svg" xmlns:xlink="http://www.w3.org/1999/xlink" width="24" height="24" viewBox="0 0 24 24">
  <defs>
    <polygon id="home-a" points="10 20.5 10 14.5 14 14.5 14 20.5 19 20.5 19 12.5 22 12.5 12 3.5 2 12.5 5 12.5 5 20.5"/>
  </defs>
  <g fill="none" fill-rule="evenodd">
    <mask id="home-b" fill="#fff">
      <use xlink:href="#home-a"/>
    </mask>
    <use fill="#595868" fill-rule="nonzero" xlink:href="#home-a"/>
  </g>
</svg>
