<?xml version="1.0" encoding="UTF-8"?>
<svg width="24px" height="24px" viewBox="0 0 24 24" version="1.1" xmlns="http://www.w3.org/2000/svg" xmlns:xlink="http://www.w3.org/1999/xlink">
    <!-- Generator: Sketch 53 (72520) - https://sketchapp.com -->
    <title>ic/import_export</title>
    <desc>Created with Sketch.</desc>
    <defs>
        <path d="M9,3 L5,6.99 L8,6.99 L8,14 L10,14 L10,6.99 L13,6.99 L9,3 Z M16,17.01 L16,10 L14,10 L14,17.01 L11,17.01 L15,21 L19,17.01 L16,17.01 Z" id="path-1"></path>
    </defs>

</svg>
