<svg xmlns="http://www.w3.org/2000/svg" xmlns:xlink="http://www.w3.org/1999/xlink" width="24" height="24" viewBox="0 0 24 24">
  <defs>
    <path id="insert_chart-a" d="M19,3 L5,3 C3.9,3 3,3.9 3,5 L3,19 C3,20.1 3.9,21 5,21 L19,21 C20.1,21 21,20.1 21,19 L21,5 C21,3.9 20.1,3 19,3 Z M9,17 L7,17 L7,10 L9,10 L9,17 Z M13,17 L11,17 L11,7 L13,7 L13,17 Z M17,17 L15,17 L15,13 L17,13 L17,17 Z"/>
  </defs>
  <g fill="none" fill-rule="evenodd">
    <mask id="insert_chart-b" fill="#fff">
      <use xlink:href="#insert_chart-a"/>
    </mask>
    <use fill="#595868" fill-rule="nonzero" xlink:href="#insert_chart-a"/>
  </g>
</svg>
