<svg xmlns="http://www.w3.org/2000/svg" xmlns:xlink="http://www.w3.org/1999/xlink" width="24" height="24" viewBox="0 0 24 24">
  <defs>
    <path id="laptop_mac-a" d="M20,18.5 C21.1,18.5 21.99,17.6 21.99,16.5 L22,5.5 C22,4.4 21.1,3.5 20,3.5 L4,3.5 C2.9,3.5 2,4.4 2,5.5 L2,16.5 C2,17.6 2.9,18.5 4,18.5 L0,18.5 C0,19.6 0.9,20.5 2,20.5 L22,20.5 C23.1,20.5 24,19.6 24,18.5 L20,18.5 Z M4,5.5 L20,5.5 L20,16.5 L4,16.5 L4,5.5 Z M12,19.5 C11.45,19.5 11,19.05 11,18.5 C11,17.95 11.45,17.5 12,17.5 C12.55,17.5 13,17.95 13,18.5 C13,19.05 12.55,19.5 12,19.5 Z"/>
  </defs>
  <g fill="none" fill-rule="evenodd">
    <mask id="laptop_mac-b" fill="#fff">
      <use xlink:href="#laptop_mac-a"/>
    </mask>
    <use fill="#595868" fill-rule="nonzero" xlink:href="#laptop_mac-a"/>
  </g>
</svg>
