<svg xmlns="http://www.w3.org/2000/svg" xmlns:xlink="http://www.w3.org/1999/xlink" width="24" height="24" viewBox="0 0 24 24">
  <defs>
    <path id="last_page-a" d="M5.795,7.41 L10.385,12 L5.795,16.59 L7.205,18 L13.205,12 L7.205,6 L5.795,7.41 Z M16.205,6 L18.205,6 L18.205,18 L16.205,18 L16.205,6 Z"/>
  </defs>
  <g fill="none" fill-rule="evenodd">
    <mask id="last_page-b" fill="#fff">
      <use xlink:href="#last_page-a"/>
    </mask>
    <use fill="#595868" fill-rule="nonzero" xlink:href="#last_page-a"/>
  </g>
</svg>
