<svg xmlns="http://www.w3.org/2000/svg" xmlns:xlink="http://www.w3.org/1999/xlink" width="24" height="24" viewBox="0 0 24 24">
  <defs>
    <path id="light-a" d="M9,2 C7.95,2 6.95,2.16 6,2.46 C10.06,3.73 13,7.52 13,12 C13,16.48 10.06,20.27 6,21.54 C6.95,21.84 7.95,22 9,22 C14.52,22 19,17.52 19,12 C19,6.48 14.52,2 9,2 Z"/>
  </defs>
  <g fill="none" fill-rule="evenodd">
    <mask id="light-b" fill="#fff">
      <use xlink:href="#light-a"/>
    </mask>
    <use fill="#595868" fill-rule="nonzero" xlink:href="#light-a"/>
  </g>
</svg>
