<?xml version="1.0" encoding="utf-8"?>
<!-- Generator: Adobe Illustrator 22.0.1, SVG Export Plug-In . SVG Version: 6.00 Build 0)  -->
<svg version="1.1" id="Capa_1" xmlns="http://www.w3.org/2000/svg" xmlns:xlink="http://www.w3.org/1999/xlink" x="0px" y="0px"
	 viewBox="0 0 24 24" style="enable-background:new 0 0 24 24;" xml:space="preserve">
<style type="text/css">
	.st0{fill:#007AB9;}
</style>
<g>
	<path class="st0" d="M13.2,10.7L13.2,10.7C13.2,10.6,13.2,10.6,13.2,10.7L13.2,10.7z"/>
	<path class="st0" d="M12,1C5.9,1,1,5.9,1,12s4.9,11,11,11c6.1,0,11-4.9,11-11S18.1,1,12,1z M9.1,17.4H6.5V9.5h2.6V17.4z M7.8,8.4
		L7.8,8.4c-0.9,0-1.5-0.6-1.5-1.4c0-0.8,0.6-1.4,1.5-1.4c0.9,0,1.5,0.6,1.5,1.4C9.3,7.8,8.7,8.4,7.8,8.4z M18.6,17.4h-2.6v-4.2
		c0-1.1-0.4-1.8-1.3-1.8c-0.7,0-1.2,0.5-1.3,1c-0.1,0.2-0.1,0.4-0.1,0.6v4.4h-2.6c0,0,0-7.2,0-7.9h2.6v1.1c0.3-0.5,1-1.3,2.4-1.3
		c1.7,0,3,1.1,3,3.6V17.4z"/>
</g>
</svg>
