<svg xmlns="http://www.w3.org/2000/svg" xmlns:xlink="http://www.w3.org/1999/xlink" width="24" height="24" viewBox="0 0 24 24">
  <defs>
    <path id="map-a" d="M21,10.2681602 L21,19.5842857 C21,19.8142857 20.85,19.9942857 20.64,20.0642857 L15,21.9642857 L9,19.8642857 L3.66,21.9342857 L3.5,21.9642857 C3.22,21.9642857 3,21.7442857 3,21.4642857 L3,6.34428571 C3,6.11428571 3.15,5.93428571 3.36,5.86428571 L9,3.96428571 L10.2939345,4.41716278 C10.1603402,4.75901123 10.0552649,5.11579954 9.98168417,5.48427552 L9.33840204,5.24630637 L9.33840204,18.4871263 L14.6172705,20.4338519 L14.6172705,16.2945277 L15.8571429,17.7358793 L15.8571429,20.3922444 L19.8781927,18.9626025 L19.8781927,12.4187819 C20.3156231,11.6881369 20.6937739,10.9692923 21,10.2681602 Z M8.14285714,5.5932693 L4.34896254,6.86640507 L4.34896254,20.1372092 L8.14285714,18.5934705 L8.14285714,5.5932693 Z M15.8571429,2.25 C18.2265306,2.25 20.1428571,4.26214286 20.1428571,6.75 C20.1428571,10.125 15.8571429,15.1071429 15.8571429,15.1071429 C15.8571429,15.1071429 11.5714286,10.125 11.5714286,6.75 C11.5714286,4.26214286 13.4877551,2.25 15.8571429,2.25 Z M15.8571429,8.35714286 C16.7020408,8.35714286 17.3877551,7.63714286 17.3877551,6.75 C17.3877551,5.86285714 16.7020408,5.14285714 15.8571429,5.14285714 C15.0122449,5.14285714 14.3265306,5.86285714 14.3265306,6.75 C14.3265306,7.63714286 15.0122449,8.35714286 15.8571429,8.35714286 Z"/>
  </defs>
  <g fill="none" fill-rule="evenodd">
    <mask id="map-b" fill="#fff">
      <use xlink:href="#map-a"/>
    </mask>
    <use fill="#595868" xlink:href="#map-a"/>
  </g>
</svg>
