<svg xmlns="http://www.w3.org/2000/svg" xmlns:xlink="http://www.w3.org/1999/xlink" width="24" height="24" viewBox="0 0 24 24">
  <defs>
    <path id="markunread_mailbox-a" d="M20,7 L10,7 L10,13 L8,13 L8,5 L14,5 L14,1 L6,1 L6,7 L4,7 C2.9,7 2,7.9 2,9 L2,21 C2,22.1 2.9,23 4,23 L20,23 C21.1,23 22,22.1 22,21 L22,9 C22,7.9 21.1,7 20,7 Z"/>
  </defs>
  <g fill="none" fill-rule="evenodd">
    <mask id="markunread_mailbox-b" fill="#fff">
      <use xlink:href="#markunread_mailbox-a"/>
    </mask>
    <use fill="#595868" fill-rule="nonzero" xlink:href="#markunread_mailbox-a"/>
  </g>
</svg>
