<?xml version="1.0" encoding="UTF-8"?>
<svg width="24px" height="24px" viewBox="0 0 24 24" version="1.1" xmlns="http://www.w3.org/2000/svg" xmlns:xlink="http://www.w3.org/1999/xlink">
    <!-- Generator: Sketch 54.1 (76490) - https://sketchapp.com -->
    <title>material_cost</title>
    <desc>Created with Sketch.</desc>
    <g id="material_cost" stroke="none" stroke-width="1" fill="none" fill-rule="evenodd">
        <g id="material-cost" transform="translate(2.000000, 2.000000)" fill="#595867" fill-rule="nonzero">
            <path d="M0,15.54 L0,5.07 L9.51,9.53 L9.51,20 L0,15.54 Z M5.71,2 L9.94,0 L19.36,4.42 L15.13,6.42 L5.71,2 Z M14.18,6.87 L9.94,8.87 L0.52,4.42 L4.75,2.42 L14.18,6.87 Z M10.37,9.54 L19.88,5.08 L19.88,15.54 L10.37,20 L10.37,9.54 Z" id="Shape"></path>
        </g>
    </g>
</svg>