<?xml version="1.0" encoding="UTF-8"?>
<svg width="24px" height="24px" viewBox="0 0 24 24" version="1.1" xmlns="http://www.w3.org/2000/svg" xmlns:xlink="http://www.w3.org/1999/xlink">
    <!-- Generator: Sketch 51.1 (57501) - http://www.bohemiancoding.com/sketch -->
    <title>ic/viewers/measure-vertical</title>
    <desc>Created with Sketch.</desc>
    <defs>
        <path d="M12.75,22.5 L14.4375,22.5 L14.4375,23.625 C14.4375,23.8321068 14.6263799,24 14.859375,24 L15.703125,24 C15.9361201,24 16.125,23.8321068 16.125,23.625 L16.125,0.375 C16.125,0.167893219 15.9361201,0 15.703125,0 L6.421875,0 C6.18887987,0 6,0.167893219 6,0.375 L6,23.625 C6,23.8321068 6.18887987,24 6.421875,24 L7.265625,24 C7.49862013,24 7.6875,23.8321068 7.6875,23.625 L7.6875,1.5 L14.4375,1.5 L14.4375,3.75 L12.75,3.75 L12.75,4.5 L14.4375,4.5 L14.4375,6.75 L11.90625,6.75 L11.90625,7.5 L14.4375,7.5 L14.4375,9.75 L12.75,9.75 L12.75,10.5 L14.4375,10.5 L14.4375,12.75 L11.90625,12.75 L11.90625,13.5 L14.4375,13.5 L14.4375,15.75 L12.75,15.75 L12.75,16.5 L14.4375,16.5 L14.4375,18.75 L11.90625,18.75 L11.90625,19.5 L14.4375,19.5 L14.4375,21.75 L12.75,21.75 L12.75,22.5 Z" id="path-1"></path>
    </defs>
    <g id="ic/viewers/measure-vertical" stroke="none" stroke-width="1" fill="none" fill-rule="evenodd">
        <mask id="mask-2" fill="white">
            <use xlink:href="#path-1"></use>
        </mask>
        <use id="Mask" fill="#363545" fill-rule="nonzero" xlink:href="#path-1"></use>
    </g>
</svg>