<?xml version="1.0" encoding="UTF-8"?>
<svg width="24px" height="24px" viewBox="0 0 24 24" version="1.1" xmlns="http://www.w3.org/2000/svg" xmlns:xlink="http://www.w3.org/1999/xlink">
    <!-- Generator: Sketch 51.1 (57501) - http://www.bohemiancoding.com/sketch -->
    <title>ic/navigation/menu_open</title>
    <desc>Created with Sketch.</desc>
    <defs>
        <path d="M12.65,16.6 L8.05,12 L12.65,7.4 L11.25,6 L5.25,12 L11.25,18 L12.65,16.6 Z M18.5,7.4 L13.9,12 L18.5,16.6 L17.1,18 L11.1,12 L17.1,6 L18.5,7.4 Z" id="path-1"></path>
    </defs>
    <g id="ic/navigation/menu_open" stroke="none" stroke-width="1" fill="none" fill-rule="evenodd">
        <mask id="mask-2" fill="white">
            <use xlink:href="#path-1"></use>
        </mask>
        <use id="menu_close" fill="#363545" fill-rule="nonzero" transform="translate(11.875000, 12.000000) rotate(180.000000) translate(-11.875000, -12.000000) " xlink:href="#path-1"></use>
    </g>
</svg>