<svg xmlns="http://www.w3.org/2000/svg" xmlns:xlink="http://www.w3.org/1999/xlink" width="24" height="24" viewBox="0 0 24 24">
  <defs>
    <path id="menu_close-a" d="M12.65,16.6 L8.05,12 L12.65,7.4 L11.25,6 L5.25,12 L11.25,18 L12.65,16.6 Z M18.5,7.4 L13.9,12 L18.5,16.6 L17.1,18 L11.1,12 L17.1,6 L18.5,7.4 Z"/>
  </defs>
  <g fill="none" fill-rule="evenodd">
    <mask id="menu_close-b" fill="#fff">
      <use xlink:href="#menu_close-a"/>
    </mask>
    <use fill="#595868" fill-rule="nonzero" xlink:href="#menu_close-a"/>
  </g>
</svg>
