<?xml version="1.0" encoding="UTF-8"?>
<svg width="24px" height="24px" viewBox="0 0 24 24" version="1.1" xmlns="http://www.w3.org/2000/svg" xmlns:xlink="http://www.w3.org/1999/xlink">
    <!-- Generator: Sketch 53 (72520) - https://sketchapp.com -->
    <title>ic/core/model tree</title>
    <desc>Created with Sketch.</desc>
    <defs>
        <path d="M8.69138333,8.29758333 C8.50163333,8.29758333 8.34763333,8.1445 8.34763333,7.95383333 L8.34763333,1.34375 C8.34763333,1.154 8.50163333,1 8.69138333,1 L15.3088,1 C15.49855,1 15.65255,1.154 15.65255,1.34375 L15.65255,7.95383333 C15.65255,8.1445 15.49855,8.29758333 15.3088,8.29758333 L8.69138333,8.29758333 Z M22.65625,15.7026 C22.846,15.7026 23,15.8556833 23,16.04635 L23,22.6564333 C23,22.8461833 22.846,23.0001833 22.65625,23.0001833 L16.0388333,23.0001833 C15.8490833,23.0001833 15.6950833,22.8461833 15.6950833,22.6564333 L15.6950833,16.04635 C15.6950833,15.8556833 15.8490833,15.7026 16.0388333,15.7026 L18.8429167,15.7026 L18.8429167,12.52635 L12.5261667,12.52635 L11.4949167,12.52635 L5.17908333,12.52635 L5.17908333,15.7026 L7.96116667,15.7026 C8.15091667,15.7026 8.30491667,15.8556833 8.30491667,16.04635 L8.30491667,22.6564333 C8.30491667,22.8461833 8.15091667,23.0001833 7.96116667,23.0001833 L1.34375,23.0001833 C1.154,23.0001833 1,22.8461833 1,22.6564333 L1,16.04635 C1,15.8556833 1.154,15.7026 1.34375,15.7026 L4.14783333,15.7026 L4.14783333,11.8929333 C4.14783333,11.6729333 4.32566667,11.4960167 4.54475,11.4960167 L4.78125,11.4960167 C4.82158333,11.4960167 4.861,11.5015167 4.89858333,11.5134333 C4.9325,11.5015167 4.96916667,11.4960167 5.00675,11.4960167 L11.4949167,11.4960167 L11.4949167,8.31885 L12.5261667,8.31885 L12.5261667,11.4960167 L19.0143333,11.4960167 C19.0528333,11.4960167 19.0885833,11.5015167 19.1234167,11.5134333 C19.1600833,11.5015167 19.1995,11.4960167 19.2398333,11.4960167 L19.4763333,11.4960167 C19.6963333,11.4960167 19.8741667,11.6729333 19.8741667,11.8929333 L19.8741667,15.7026 L22.65625,15.7026 Z" id="path-1"></path>
    </defs>
    <g id="ic/core/model-tree" stroke="none" stroke-width="1" fill="none" fill-rule="evenodd">
        <mask id="mask-2" fill="white">
            <use xlink:href="#path-1"></use>
        </mask>
        <use fill="#363545" xlink:href="#path-1"></use>
    </g>
</svg>