<?xml version="1.0" encoding="UTF-8"?>
<svg width="24px" height="24px" viewBox="0 0 24 24" version="1.1" xmlns="http://www.w3.org/2000/svg" xmlns:xlink="http://www.w3.org/1999/xlink">
    <!-- Generator: Sketch 54.1 (76490) - https://sketchapp.com -->
    <title>move_backward</title>
    <desc>Created with Sketch.</desc>
    <g id="move_backward" stroke="none" stroke-width="1" fill="none" fill-rule="evenodd">
        <rect id="Rectangle" fill="#595868" x="15" y="8" width="7" height="4"></rect>
        <rect id="Rectangle" fill="#595868" x="18" y="10" width="4" height="12"></rect>
        <rect id="Rectangle" fill="#595868" x="12" y="18" width="6" height="4"></rect>
        <rect id="Rectangle" fill="#595868" x="8" y="15" width="4" height="7"></rect>
        <rect id="Rectangle" fill="#595868" x="2" y="11" width="11" height="2"></rect>
        <rect id="Rectangle" fill="#595868" x="2" y="2" width="2" height="9"></rect>
        <rect id="Rectangle" fill="#595868" x="4" y="2" width="7" height="2"></rect>
        <rect id="Rectangle" fill="#595868" x="11" y="2" width="2" height="9"></rect>
    </g>
</svg>