<?xml version="1.0" encoding="UTF-8"?>
<svg width="24px" height="24px" viewBox="0 0 24 24" version="1.1" xmlns="http://www.w3.org/2000/svg" xmlns:xlink="http://www.w3.org/1999/xlink">
    <!-- Generator: Sketch 54.1 (76490) - https://sketchapp.com -->
    <title>move_to_front</title>
    <desc>Created with Sketch.</desc>
    <g id="move_to_front" stroke="none" stroke-width="1" fill="none" fill-rule="evenodd">
        <g id="Group-2" fill="#595868">
            <rect id="Rectangle" x="0" y="9" width="4" height="2"></rect>
            <rect id="Rectangle" x="0" y="0" width="2" height="9"></rect>
            <rect id="Rectangle" x="2" y="0" width="7" height="2"></rect>
            <rect id="Rectangle" x="9" y="0" width="2" height="4"></rect>
        </g>
        <g id="Group-2" transform="translate(13.000000, 13.000000)" fill="#595868">
            <rect id="Rectangle" x="0" y="7" width="2" height="4"></rect>
            <rect id="Rectangle" x="9" y="2" width="2" height="9"></rect>
            <rect id="Rectangle" x="2" y="9" width="7" height="2"></rect>
            <rect id="Rectangle" x="7" y="0" width="4" height="2"></rect>
        </g>
        <g id="Group" transform="translate(5.000000, 5.000000)" fill="#595868">
            <rect id="Rectangle" x="4" y="1.42108547e-14" width="10" height="4"></rect>
            <rect id="Rectangle" x="10" y="4" width="4" height="10"></rect>
            <rect id="Rectangle" x="4" y="10" width="6" height="4"></rect>
            <rect id="Rectangle" x="0" y="0" width="4" height="14"></rect>
        </g>
    </g>
</svg>