<?xml version="1.0" encoding="UTF-8"?>
<svg width="24px" height="24px" viewBox="0 0 24 24" version="1.1" xmlns="http://www.w3.org/2000/svg" xmlns:xlink="http://www.w3.org/1999/xlink">
    <!-- Generator: Sketch 53 (72520) - https://sketchapp.com -->
    <title>ic/move</title>
    <desc>Created with Sketch.</desc>
    <defs>
        <polygon id="path-1" points="12.0946151 2 15.5806507 6.61748523 13.27523 6.61748523 13.27523 10.8626404 17.4567642 10.8626404 17.4614014 8.71979486 22 12.107122 17.5156648 15.4778939 17.4801129 13.2903736 13.27523 13.2903736 13.27523 17.4590015 15.4710663 17.4436636 12.0946151 22 8.72206899 17.5059891 10.8402525 17.5005518 10.8402525 13.2903736 6.62694947 13.2903736 6.62694947 15.4728625 2 12.107122 6.62694947 8.71947023 6.62694947 10.8626404 10.8402525 10.8626404 10.8402525 6.61748523 8.73972292 6.61748523"></polygon>
    </defs>

</svg>
