<svg xmlns="http://www.w3.org/2000/svg" xmlns:xlink="http://www.w3.org/1999/xlink" width="24" height="24" viewBox="0 0 24 24">
  <defs>
    <path id="multiline_chart-a" d="M22,7.175 L20.59,5.765 L17.74,8.975 C15.68,6.655 12.83,5.255 9.61,5.255 C6.72,5.255 4.07,6.415 2,8.255 L3.42,9.675 C5.12,8.185 7.27,7.255 9.61,7.255 C12.35,7.255 14.7,8.515 16.38,10.495 L13.5,13.735 L9.5,9.735 L2,17.245 L3.5,18.745 L9.5,12.735 L13.5,16.735 L17.55,12.185 C18.3,13.535 18.8,15.085 18.99,16.735 L21,16.735 C20.78,14.435 20.05,12.345 18.96,10.595 L22,7.175 Z"/>
  </defs>
  <g fill="none" fill-rule="evenodd">
    <mask id="multiline_chart-b" fill="#fff">
      <use xlink:href="#multiline_chart-a"/>
    </mask>
    <use fill="#595868" fill-rule="nonzero" xlink:href="#multiline_chart-a"/>
  </g>
</svg>
