<svg xmlns="http://www.w3.org/2000/svg" xmlns:xlink="http://www.w3.org/1999/xlink" width="24" height="24" viewBox="0 0 24 24">
  <defs>
    <polygon id="navigation-a" points="12 2.5 4.5 20.79 5.21 21.5 12 18.5 18.79 21.5 19.5 20.79"/>
  </defs>
  <g fill="none" fill-rule="evenodd">
    <mask id="navigation-b" fill="#fff">
      <use xlink:href="#navigation-a"/>
    </mask>
    <use fill="#595868" fill-rule="nonzero" xlink:href="#navigation-a"/>
  </g>
</svg>
