<svg xmlns="http://www.w3.org/2000/svg" xmlns:xlink="http://www.w3.org/1999/xlink" width="24" height="24" viewBox="0 0 24 24">
  <defs>
    <path id="no-wifi-a" d="M9,18.21 L12,21.21 L15,18.21 C13.35,16.55 10.66,16.55 9,18.21 Z M2,4.26 L5.07,7.31 C3.6,8.03 2.22,8.99 1,10.21 L2.99,12.21 C4.23,10.97 5.66,10.05 7.19,9.44 L9.43,11.68 C7.81,12.1 6.27,12.94 5,14.21 L5,14.22 L6.99,16.21 C8.35,14.85 10.13,14.17 11.91,14.15 L18.98,21.21 L20.25,19.95 L3.29,3 L2,4.26 Z M18.99,14.21 C17.7,12.92 16.15,12.08 14.5,11.65 L18.03,15.18 L18.99,14.21 Z M22.99,10.21 C19.15,6.37 13.8,4.97 8.84,5.99 L11.36,8.51 C14.83,8.34 18.35,9.56 20.99,12.21 L22.99,10.21 Z"/>
  </defs>
  <g fill="none" fill-rule="evenodd">
    <mask id="no-wifi-b" fill="#fff">
      <use xlink:href="#no-wifi-a"/>
    </mask>
    <use fill="#595868" xlink:href="#no-wifi-a"/>
  </g>
</svg>
