<svg xmlns="http://www.w3.org/2000/svg" xmlns:xlink="http://www.w3.org/1999/xlink" width="24" height="24" viewBox="0 0 24 24">
  <defs>
    <path id="notifications-a" d="M12,21.75 C13.1,21.75 14,20.85 14,19.75 L10,19.75 C10,20.85 10.89,21.75 12,21.75 Z M18,15.75 L18,10.75 C18,7.68 16.36,5.11 13.5,4.43 L13.5,3.75 C13.5,2.92 12.83,2.25 12,2.25 C11.17,2.25 10.5,2.92 10.5,3.75 L10.5,4.43 C7.63,5.11 6,7.67 6,10.75 L6,15.75 L4,17.75 L4,18.75 L20,18.75 L20,17.75 L18,15.75 Z"/>
  </defs>
  <g fill="none" fill-rule="evenodd">
    <mask id="notifications-b" fill="#fff">
      <use xlink:href="#notifications-a"/>
    </mask>
    <use fill="#595868" fill-rule="nonzero" xlink:href="#notifications-a"/>
  </g>
</svg>
