<svg xmlns="http://www.w3.org/2000/svg" xmlns:xlink="http://www.w3.org/1999/xlink" width="24" height="24" viewBox="0 0 24 24">
  <defs>
    <path id="on-a" d="M9.07205656,8.49941607 L11.5903902,1.78385981 C11.7323201,1.40538006 12.2676799,1.40538006 12.4096098,1.78385981 L14.9279434,8.49941607 L22.0616606,8.49941607 C22.4678045,8.49941607 22.6547255,9.00471171 22.3463581,9.26902663 L16.4452042,14.3271585 L18.9769669,21.9224466 C19.1118271,22.3270272 18.6471563,22.6657536 18.3032525,22.4135575 L12,17.7911723 L5.69674745,22.4135575 C5.35284367,22.6657536 4.88817293,22.3270272 5.02303311,21.9224466 L7.5547958,14.3271585 L1.65364192,9.26902663 C1.34527451,9.00471171 1.53219553,8.49941607 1.93833939,8.49941607 L9.07205656,8.49941607 Z"/>
  </defs>
  <g fill="none" fill-rule="evenodd">
    <mask id="on-b" fill="#fff">
      <use xlink:href="#on-a"/>
    </mask>
    <use fill="#595868" fill-rule="nonzero" xlink:href="#on-a"/>
  </g>
</svg>
