<svg xmlns="http://www.w3.org/2000/svg" xmlns:xlink="http://www.w3.org/1999/xlink" width="24" height="24" viewBox="0 0 24 24">
  <defs>
    <path id="ortho-a" d="M14.4636559,19.1660215 L14.4636559,15.4636559 L14.4636559,14.6034409 L14.4636559,8.63010753 L21.1397849,4.2283871 L21.1397849,14.6034409 L21.1397849,14.7651613 L20.0791398,15.4636559 L14.4636559,19.1660215 Z M2.86021505,19.5591398 L2.86021505,19.1909677 L2.86021505,8.81591398 L9.53548387,8.81591398 L10.3956989,8.81591398 L13.6034409,8.81591398 L13.6034409,14.6034409 L13.6034409,15.4636559 L13.6034409,19.5591398 L3.86408602,19.5591398 L2.86021505,19.5591398 Z M9.53548387,4.25333333 L9.98537634,3.95741935 L10.1324731,3.86021505 L10.3956989,3.86021505 L20.1367742,3.86021505 L13.9243011,7.95569892 L10.3956989,7.95569892 L9.53548387,7.95569892 L3.92086022,7.95569892 L9.53548387,4.25333333 Z M21.9922581,3.39311828 C21.9896774,3.36387097 21.9836559,3.33634409 21.9750538,3.30795699 C21.9673118,3.28129032 21.9569892,3.25462366 21.9432258,3.2288172 C21.9372043,3.21677419 21.9363441,3.20387097 21.9294624,3.19354839 C21.9208602,3.18150538 21.907957,3.17462366 21.9002151,3.16344086 C21.8804301,3.14021505 21.8597849,3.11956989 21.8374194,3.10064516 C21.8167742,3.08516129 21.7944086,3.06967742 21.7711828,3.05677419 C21.747957,3.04387097 21.7221505,3.03354839 21.6963441,3.02494624 C21.6696774,3.0172043 21.6412903,3.01204301 21.6111828,3.00860215 C21.5965591,3.00688172 21.5845161,3 21.5698925,3 L9.9655914,3 C9.95354839,3 9.94322581,3.00602151 9.93032258,3.00688172 C9.92774194,3.00774194 9.92516129,3.00860215 9.92172043,3.00946237 C9.80989247,3.02064516 9.71354839,3.07225806 9.64387097,3.15311828 L2.32774194,7.97634409 C2.21677419,8.00387097 2.13935484,8.08129032 2.08172043,8.17505376 C2.04817204,8.22236559 2.02322581,8.27569892 2.01032258,8.3316129 C2.01032258,8.33591398 2.00860215,8.33849462 2.00860215,8.3427957 C2.00774194,8.35741935 2,8.37032258 2,8.38580645 L2,19.9892473 C2,20.0030108 2.00688172,20.0133333 2.00774194,20.0262366 C2.00946237,20.0554839 2.01634409,20.0830108 2.02408602,20.1113978 C2.03268817,20.1380645 2.04301075,20.1647312 2.05677419,20.1905376 C2.0627957,20.2025806 2.06365591,20.2154839 2.07139785,20.2258065 C2.07741935,20.236129 2.08860215,20.2395699 2.09548387,20.248172 C2.1255914,20.2877419 2.16172043,20.3187097 2.20129032,20.3445161 C2.21591398,20.3539785 2.22795699,20.3660215 2.24430108,20.3729032 C2.30107527,20.4012903 2.36301075,20.4193548 2.43010753,20.4193548 L2.43096774,20.4193548 L13.9965591,20.4193548 L14.0335484,20.4193548 C14.1643011,20.4193548 14.2769892,20.3582796 14.356129,20.2662366 L21.6722581,15.4430108 C21.7832258,15.4154839 21.8615054,15.3380645 21.9174194,15.2443011 C21.951828,15.1969892 21.9767742,15.1436559 21.9888172,15.0877419 C21.9896774,15.0843011 21.9905376,15.0808602 21.9913978,15.0765591 C21.9931183,15.0619355 22,15.0490323 22,15.0335484 L22,3.43010753 C22,3.41634409 21.9939785,3.40602151 21.9922581,3.39311828 Z"/>
  </defs>
  <g fill="none" fill-rule="evenodd">
    <mask id="ortho-b" fill="#fff">
      <use xlink:href="#ortho-a"/>
    </mask>
    <use fill="#595868" xlink:href="#ortho-a"/>
  </g>
</svg>
