<svg xmlns="http://www.w3.org/2000/svg" xmlns:xlink="http://www.w3.org/1999/xlink" width="24" height="24" viewBox="0 0 24 24">
  <defs>
    <path id="person_add-a" d="M15,12 C17.21,12 19,10.21 19,8 C19,5.79 17.21,4 15,4 C12.79,4 11,5.79 11,8 C11,10.21 12.79,12 15,12 Z M6,10 L6,7 L4,7 L4,10 L1,10 L1,12 L4,12 L4,15 L6,15 L6,12 L9,12 L9,10 L6,10 Z M15,14 C12.33,14 7,15.34 7,18 L7,20 L23,20 L23,18 C23,15.34 17.67,14 15,14 Z"/>
  </defs>
  <g fill="none" fill-rule="evenodd">
    <mask id="person_add-b" fill="#fff">
      <use xlink:href="#person_add-a"/>
    </mask>
    <use fill="#595868" fill-rule="nonzero" xlink:href="#person_add-a"/>
  </g>
</svg>
