<svg xmlns="http://www.w3.org/2000/svg" xmlns:xlink="http://www.w3.org/1999/xlink" width="24" height="24" viewBox="0 0 24 24">
  <defs>
    <path id="person_pin_circle-a" d="M12,2 C8.14,2 5,5.14 5,9 C5,14.25 12,22 12,22 C12,22 19,14.25 19,9 C19,5.14 15.86,2 12,2 Z M12,4 C13.1,4 14,4.9 14,6 C14,7.11 13.1,8 12,8 C10.9,8 10,7.11 10,6 C10,4.9 10.9,4 12,4 Z M12,14 C10.33,14 8.86,13.15 8,11.85 C8.02,10.53 10.67,9.8 12,9.8 C13.33,9.8 15.98,10.53 16,11.85 C15.14,13.15 13.67,14 12,14 Z"/>
  </defs>
  <g fill="none" fill-rule="evenodd">
    <mask id="person_pin_circle-b" fill="#fff">
      <use xlink:href="#person_pin_circle-a"/>
    </mask>
    <use fill="#595868" fill-rule="nonzero" xlink:href="#person_pin_circle-a"/>
  </g>
</svg>
