<svg xmlns="http://www.w3.org/2000/svg" xmlns:xlink="http://www.w3.org/1999/xlink" width="24" height="24" viewBox="0 0 24 24">
  <defs>
    <path id="perspective-a" d="M21.3846154,3.92307692 L12.1538462,2 C12.0384615,2 11.9615385,2 11.8461538,2 L2.61538462,3.92307692 C2.26923077,4 2,4.30769231 2,4.69230769 L2,15.0769231 C2,15.3461538 2.15384615,15.5769231 2.34615385,15.7307692 L11.5769231,21.5 C11.6923077,21.5769231 11.8461538,21.6153846 12,21.6153846 C12.1538462,21.6153846 12.2692308,21.5769231 12.4230769,21.5 L21.6538462,15.7307692 C21.8846154,15.5769231 22,15.3461538 22,15.0769231 L22,4.69230769 C22,4.34615385 21.7307692,4 21.3846154,3.92307692 Z M15.1538462,6.07692308 L12,7 L8.84615385,6.07692308 L5.15384615,5 L12,3.53846154 L18.8461538,4.96153846 L15.1538462,6.07692308 Z M12.3846154,7.69230769 L20.4615385,5.46153846 L20.4615385,14.6538462 L12.3846154,19.6923077 L12.3846154,7.69230769 Z M3.53846154,14.6538462 L3.53846154,5.46153846 L11.6153846,7.69230769 L11.6153846,19.6923077 L3.53846154,14.6538462 Z"/>
  </defs>
  <g fill="none" fill-rule="evenodd">
    <mask id="perspective-b" fill="#fff">
      <use xlink:href="#perspective-a"/>
    </mask>
    <use fill="#595868" fill-rule="nonzero" xlink:href="#perspective-a"/>
  </g>
</svg>
