<svg xmlns="http://www.w3.org/2000/svg" xmlns:xlink="http://www.w3.org/1999/xlink" width="24" height="24" viewBox="0 0 24 24">
  <defs>
    <path id="phone_android-a" d="M16,1 L8,1 C6.34,1 5,2.34 5,4 L5,20 C5,21.66 6.34,23 8,23 L16,23 C17.66,23 19,21.66 19,20 L19,4 C19,2.34 17.66,1 16,1 Z M14,21 L10,21 L10,20 L14,20 L14,21 Z M17.25,18 L6.75,18 L6.75,4 L17.25,4 L17.25,18 Z"/>
  </defs>
  <g fill="none" fill-rule="evenodd">
    <mask id="phone_android-b" fill="#fff">
      <use xlink:href="#phone_android-a"/>
    </mask>
    <use fill="#595868" fill-rule="nonzero" xlink:href="#phone_android-a"/>
  </g>
</svg>
