<svg xmlns="http://www.w3.org/2000/svg" xmlns:xlink="http://www.w3.org/1999/xlink" width="24" height="24" viewBox="0 0 24 24">
  <defs>
    <path id="pie_chart_outlined-a" d="M12,2 C6.5,2 2,6.5 2,12 C2,17.5 6.5,22 12,22 C17.5,22 22,17.5 22,12 C22,6.5 17.5,2 12,2 Z M13,4.07 C16.61,4.52 19.48,7.4 19.93,11 L13,11 L13,4.07 Z M4,12 C4,7.94 7.07,4.56 11,4.07 L11,19.94 C7.07,19.44 4,16.06 4,12 Z M13,19.93 L13,13 L19.93,13 C19.48,16.61 16.61,19.48 13,19.93 Z"/>
  </defs>
  <g fill="none" fill-rule="evenodd">
    <mask id="pie_chart_outlined-b" fill="#fff">
      <use xlink:href="#pie_chart_outlined-a"/>
    </mask>
    <use fill="#595868" fill-rule="nonzero" xlink:href="#pie_chart_outlined-a"/>
  </g>
</svg>
