<svg xmlns="http://www.w3.org/2000/svg" xmlns:xlink="http://www.w3.org/1999/xlink" width="24" height="24" viewBox="0 0 24 24">
  <defs>
    <path id="pie_chart-a" d="M11,2 L11,22 C5.93,21.5 2,17.21 2,12 C2,6.79 5.93,2.5 11,2 Z M13.03,2 L13.03,10.99 L22,10.99 C21.53,6.25 17.76,2.47 13.03,2 Z M13.03,13.01 L13.03,22 C17.77,21.53 21.53,17.75 22,13.01 L13.03,13.01 Z"/>
  </defs>
  <g fill="none" fill-rule="evenodd">
    <mask id="pie_chart-b" fill="#fff">
      <use xlink:href="#pie_chart-a"/>
    </mask>
    <use fill="#595868" fill-rule="nonzero" xlink:href="#pie_chart-a"/>
  </g>
</svg>
