<svg xmlns="http://www.w3.org/2000/svg" xmlns:xlink="http://www.w3.org/1999/xlink" width="24" height="24" viewBox="0 0 24 24">
  <defs>
    <path id="priority_high-a" d="M12,17 C10.8954305,17 10,17.8954305 10,19 C10,20.1045695 10.8954305,21 12,21 C13.1045695,21 14,20.1045695 14,19 C14,17.8954305 13.1045695,17 12,17 Z M10,3 L14,3 L14,15 L10,15 L10,3 Z"/>
  </defs>
  <g fill="none" fill-rule="evenodd">
    <mask id="priority_high-b" fill="#fff">
      <use xlink:href="#priority_high-a"/>
    </mask>
    <use fill="#595868" fill-rule="nonzero" xlink:href="#priority_high-a"/>
  </g>
</svg>
