<?xml version="1.0" encoding="UTF-8"?>
<svg width="24px" height="24px" viewBox="0 0 24 24" version="1.1" xmlns="http://www.w3.org/2000/svg" xmlns:xlink="http://www.w3.org/1999/xlink">
    <!-- Generator: Sketch 53 (72520) - https://sketchapp.com -->
    <title>ic/core/read only</title>
    <desc>Created with Sketch.</desc>
    <defs>
        <path d="M13.2577965,14.5272035 L7.7504,20.0346 L4.0004,20.0346 L4.0004,16.2846 L9.50755858,10.7774414 L6.2199,7.4902 L1.9999,3.2702 L3.2699,2.0002 L21.9999,20.7302 L20.7299,22.0002 L16.9499,18.2202 L15.5299,16.8002 L14.1009,15.3702 L13.2577965,14.5272035 Z M21.71,6.075 L19.88,7.905 L16.13,4.155 L17.96,2.325 C18.147,2.137 18.4,2.033 18.665,2.033 C18.93,2.033 19.183,2.137 19.37,2.325 L21.71,4.665 C22.1,5.055 22.1,5.685 21.71,6.075 Z M15.7954,11.9896 L12.0454,8.2396 L15.0604,5.2246 L18.8104,8.9746 L15.7954,11.9896 Z" id="path-1"></path>
    </defs>
    <g id="ic/core/read-only" stroke="none" stroke-width="1" fill="none" fill-rule="evenodd">
        <mask id="mask-2" fill="white">
            <use xlink:href="#path-1"></use>
        </mask>
        <use fill="#363545" xlink:href="#path-1"></use>
    </g>
</svg>