<svg xmlns="http://www.w3.org/2000/svg" xmlns:xlink="http://www.w3.org/1999/xlink" width="24" height="24" viewBox="0 0 24 24">
  <defs>
    <path id="remote-a" d="M2.25,17.0454545 L2.25,19.7045455 L4.90909091,19.7045455 C4.90909091,18.2331818 3.72136364,17.0454545 2.25,17.0454545 Z M2.25,13.5 L2.25,15.2727273 C4.69636364,15.2727273 6.68181818,17.2581818 6.68181818,19.7045455 L8.45454545,19.7045455 C8.45454545,16.2743182 5.68022727,13.5 2.25,13.5 Z M18.2045455,7.29545455 L5.79545455,7.29545455 L5.79545455,8.74022727 C9.30545455,9.87477273 12.0797727,12.6490909 13.2143182,16.1590909 L18.2045455,16.1590909 L18.2045455,7.29545455 Z M2.25,9.95454545 L2.25,11.7272727 C6.65522727,11.7272727 10.2272727,15.2993182 10.2272727,19.7045455 L12,19.7045455 C12,14.3154545 7.63022727,9.95454545 2.25,9.95454545 Z M19.9772727,3.75 L4.02272727,3.75 C3.04772727,3.75 2.25,4.54772727 2.25,5.52272727 L2.25,8.18181818 L4.02272727,8.18181818 L4.02272727,5.52272727 L19.9772727,5.52272727 L19.9772727,17.9318182 L13.7727273,17.9318182 L13.7727273,19.7045455 L19.9772727,19.7045455 C20.9522727,19.7045455 21.75,18.9068182 21.75,17.9318182 L21.75,5.52272727 C21.75,4.54772727 20.9522727,3.75 19.9772727,3.75 Z"/>
  </defs>
  <g fill="none" fill-rule="evenodd">
    <mask id="remote-b" fill="#fff">
      <use xlink:href="#remote-a"/>
    </mask>
    <use fill="#595868" fill-rule="nonzero" xlink:href="#remote-a"/>
  </g>
</svg>
