<svg xmlns="http://www.w3.org/2000/svg" xmlns:xlink="http://www.w3.org/1999/xlink" width="24" height="24" viewBox="0 0 24 24">
  <defs>
    <path id="reply-a" d="M10,8.5 L10,4.5 L3,11.5 L10,18.5 L10,14.4 C15,14.4 18.5,16 21,19.5 C20,14.5 17,9.5 10,8.5 Z"/>
  </defs>
  <g fill="none" fill-rule="evenodd">
    <mask id="reply-b" fill="#fff">
      <use xlink:href="#reply-a"/>
    </mask>
    <use fill="#595868" fill-rule="nonzero" xlink:href="#reply-a"/>
  </g>
</svg>
