<svg xmlns="http://www.w3.org/2000/svg" xmlns:xlink="http://www.w3.org/1999/xlink" width="24" height="24" viewBox="0 0 24 24">
  <defs>
    <path id="report-a" d="M15.73,3 L8.27,3 L3,8.27 L3,15.73 L8.27,21 L15.73,21 L21,15.73 L21,8.27 L15.73,3 Z M12,17.3 C11.28,17.3 10.7,16.72 10.7,16 C10.7,15.28 11.28,14.7 12,14.7 C12.72,14.7 13.3,15.28 13.3,16 C13.3,16.72 12.72,17.3 12,17.3 Z M13,13 L11,13 L11,7 L13,7 L13,13 Z"/>
  </defs>
  <g fill="none" fill-rule="evenodd">
    <mask id="report-b" fill="#fff">
      <use xlink:href="#report-a"/>
    </mask>
    <use fill="#595868" fill-rule="nonzero" xlink:href="#report-a"/>
  </g>
</svg>
