<?xml version="1.0" encoding="UTF-8"?>
<svg width="24px" height="24px" viewBox="0 0 24 24" version="1.1" xmlns="http://www.w3.org/2000/svg" xmlns:xlink="http://www.w3.org/1999/xlink">
    <!-- Generator: Sketch 53 (72520) - https://sketchapp.com -->
    <title>ic/sd_card</title>
    <desc>Created with Sketch.</desc>
    <defs>
        <path d="M18,2 L10,2 L4.02,8 L4,20 C4,21.1 4.9,22 6,22 L18,22 C19.1,22 20,21.1 20,20 L20,4 C20,2.9 19.1,2 18,2 Z M12,8 L10,8 L10,4 L12,4 L12,8 Z M15,8 L13,8 L13,4 L15,4 L15,8 Z M18,8 L16,8 L16,4 L18,4 L18,8 Z" id="path-1"></path>
    </defs>
    <g id="ic/sd_card" stroke="none" stroke-width="1" fill="none" fill-rule="evenodd">
        <mask id="mask-2" fill="white">
            <use xlink:href="#path-1"></use>
        </mask>
        <use fill="#363545" fill-rule="nonzero" xlink:href="#path-1"></use>
    </g>
</svg>