<svg xmlns="http://www.w3.org/2000/svg" xmlns:xlink="http://www.w3.org/1999/xlink" width="24" height="24" viewBox="0 0 24 24">
  <defs>
    <polygon id="show_chart-a" points="3.5 18.49 9.5 12.48 13.5 16.48 22 6.92 20.59 5.51 13.5 13.48 9.5 9.48 2 16.99"/>
  </defs>
  <g fill="none" fill-rule="evenodd">
    <mask id="show_chart-b" fill="#fff">
      <use xlink:href="#show_chart-a"/>
    </mask>
    <use fill="#595868" fill-rule="nonzero" xlink:href="#show_chart-a"/>
  </g>
</svg>
