<svg xmlns="http://www.w3.org/2000/svg" xmlns:xlink="http://www.w3.org/1999/xlink" width="24" height="24" viewBox="0 0 24 24">
  <defs>
    <path id="show-all-a" d="M20.1,7.2 L22.8,7.2 L22.8,22.5 L3.9,22.5 L3.9,17.1 L1.2,17.1 L1.2,1.8 L20.1,1.8 L20.1,7.2 Z M3,3.6 L3,15.3 L18.3,15.3 L18.3,3.6 L3,3.6 Z M21,20.7 L21,9 L20.1,9 L20.1,17.1 L5.7,17.1 L5.7,20.7 L21,20.7 Z M17.58,9.18 C16.545,10.935 14.7,13.005 10.65,13.05 C7.5,13.005 4.755,10.935 3.72,9.18 C4.755,7.425 7.5,5.31 10.65,5.31 C14.7,5.355 16.545,7.425 17.58,9.18 Z M10.605,12.42 C12.405,12.42 13.845,10.98 13.845,9.135 C13.845,7.335 12.405,5.85 10.605,5.85 C8.805,5.895 7.365,7.335 7.365,9.135 C7.365,10.935 8.76,12.42 10.605,12.42 Z M11.775,8.865 C12,8.865 12.135,8.865 12.225,8.595 C12.27,8.775 12.315,8.91 12.315,9.09 C12.315,10.035 11.505,10.845 10.56,10.845 C9.615,10.845 8.805,10.035 8.805,9.09 C8.805,8.145 9.57,7.335 10.56,7.335 C10.74,7.335 10.92,7.38 11.055,7.425 C10.965,7.56 10.875,7.74 10.875,7.965 C10.875,8.46 11.28,8.865 11.775,8.865 Z"/>
  </defs>
  <g fill="none" fill-rule="evenodd">
    <mask id="show-all-b" fill="#fff">
      <use xlink:href="#show-all-a"/>
    </mask>
    <use fill="#595868" xlink:href="#show-all-a"/>
  </g>
</svg>
