<?xml version="1.0" encoding="UTF-8"?>
<svg width="24px" height="24px" viewBox="0 0 24 24" version="1.1" xmlns="http://www.w3.org/2000/svg" xmlns:xlink="http://www.w3.org/1999/xlink">
    <!-- Generator: Sketch 53 (72520) - https://sketchapp.com -->
    <title>skip_previous</title>
    <desc>Created with Sketch.</desc>
    <g id="skip_previous" stroke="none" stroke-width="1" fill="none" fill-rule="evenodd">
        <g transform="translate(6.000000, 6.000000)" fill="#595868" fill-rule="nonzero" id="skip_previous-a-link">
            <g>
                <path d="M0,0 L2,0 L2,12 L0,12 L0,0 Z M3.5,6 L12,12 L12,0 L3.5,6 Z" id="skip_previous-a"></path>
            </g>
        </g>
    </g>
</svg>