<svg xmlns="http://www.w3.org/2000/svg" xmlns:xlink="http://www.w3.org/1999/xlink" width="24" height="24" viewBox="0 0 24 24">
  <defs>
    <path id="icon_solid_view_tile_24-48-64-a" d="M0,0 L10.5,0 L10.5,10.5 L0,10.5 L0,0 Z M13.5,0 L24,0 L24,10.5 L13.5,10.5 L13.5,0 Z M0,13.5 L10.5,13.5 L10.5,24 L0,24 L0,13.5 Z M13.5,13.5 L24,13.5 L24,24 L13.5,24 L13.5,13.5 Z"/>
  </defs>
  <g fill="none" fill-rule="evenodd">
    <mask id="icon_solid_view_tile_24-48-64-b" fill="#fff">
      <use xlink:href="#icon_solid_view_tile_24-48-64-a"/>
    </mask>
    <use fill="#595868" fill-rule="nonzero" xlink:href="#icon_solid_view_tile_24-48-64-a"/>
  </g>
</svg>
