<svg xmlns="http://www.w3.org/2000/svg" xmlns:xlink="http://www.w3.org/1999/xlink" width="24" height="24" viewBox="0 0 24 24">
  <defs>
    <path id="icon_solid_clash_set_download-a" d="M23.6851852,13.8 L23.7851852,13.75 L23.5851852,13.6 C23.6351852,13.65 23.6351852,13.7 23.6851852,13.8 Z M10.637037,17.6592593 C10.637037,17.2444444 10.6666667,16.8296296 10.7555556,16.4444444 L10.6666667,16.4444444 L10.6666667,14.0740741 L11.6148148,14.0740741 C11.8518519,13.6592593 12.1481481,13.2444444 12.4740741,12.8888889 L10.6666667,12.8888889 L10.6666667,6.96296296 L13.037037,6.96296296 L13.037037,12.3555556 C14.2814815,11.2296296 15.9407407,10.5777778 17.7481481,10.5777778 C18.4,10.5777778 19.0222222,10.6666667 19.6444444,10.8444444 L22.7555556,7.08148148 L17.7185185,6.96296296 L18.3111111,1.98518519 L14.0444444,4.59259259 L11.8518519,0 L9.65925926,4.5037037 L5.39259259,1.8962963 L5.98518519,6.87407407 L0.948148148,6.99259259 L4.14814815,10.8444444 L0,13.6296296 L4.8,15.1703704 L2.84444444,19.7925926 L7.7037037,18.4888889 L8.53333333,23.4074074 L11.2,20.4444444 C10.8444444,19.5851852 10.637037,18.6666667 10.637037,17.6592593 Z M23.7444444,13.7296296 L23.6444444,13.6296296 C23.6444444,13.6296296 23.6444444,13.7296296 23.7444444,13.7296296 Z M23.6740741,17.6592593 C23.6740741,14.4 21.0074074,11.7333333 17.7481481,11.7333333 C14.4888889,11.7333333 11.8222222,14.4 11.8222222,17.6592593 C11.8222222,20.9185185 14.4888889,23.5851852 17.7481481,23.5851852 C21.0074074,23.5851852 23.6740741,20.9481481 23.6740741,17.6592593 Z M20.7407407,18.2222222 L17.7777778,21.1851852 L14.8148148,18.2222222 L17.1851852,18.2222222 L17.1851852,14.0740741 L18.3703704,14.0740741 L18.3703704,18.2222222 L20.7407407,18.2222222 Z"/>
  </defs>
  <g fill="none" fill-rule="evenodd">
    <mask id="icon_solid_clash_set_download-b" fill="#fff">
      <use xlink:href="#icon_solid_clash_set_download-a"/>
    </mask>
    <use fill="#595868" fill-rule="nonzero" xlink:href="#icon_solid_clash_set_download-a"/>
  </g>
</svg>
