<svg xmlns="http://www.w3.org/2000/svg" xmlns:xlink="http://www.w3.org/1999/xlink" width="24" height="24" viewBox="0 0 24 24">
  <defs>
    <path id="icon_solid_user-a" d="M19.6125,13.8 C22.2,14.5125 24,16.875 24,19.575 L24,22.8 C24,23.475 23.475,24 22.8,24 L1.2,24 C0.525,24 0,23.475 0,22.8 L0,19.575 C0,16.875 1.8,14.5125 4.3875,13.8 C4.3875,13.8 6.7875,13.05 9,12.525 C9.4125,13.6875 10.725,14.4 12,14.4 C13.275,14.4 14.5875,13.65 15,12.525 C17.2125,13.0875 19.6125,13.8 19.6125,13.8 Z M12.1125,12 L11.8875,12 C11.3625,12 11.0625,11.9625 10.3875,11.475 C9.675,10.9125 9.075,10.3875 8.5875,9.6 C8.025,8.8125 7.8,8.1 7.8,7.2 L7.8,4.2 C7.8,1.875 9.675,1.77635684e-15 12,1.77635684e-15 C14.325,1.77635684e-15 16.2,1.875 16.2,4.2 L16.2,7.2 C16.2,8.1 15.9375,8.8125 15.4125,9.6 C14.925,10.3875 14.325,10.95 13.6125,11.475 C12.9375,11.925 12.6375,12 12.1125,12 Z"/>
  </defs>
  <g fill="none" fill-rule="evenodd">
    <mask id="icon_solid_user-b" fill="#fff">
      <use xlink:href="#icon_solid_user-a"/>
    </mask>
    <use fill="#595868" fill-rule="nonzero" xlink:href="#icon_solid_user-a"/>
  </g>
</svg>
