<svg xmlns="http://www.w3.org/2000/svg" xmlns:xlink="http://www.w3.org/1999/xlink" width="24" height="24" viewBox="0 0 24 24">
  <defs>
    <path id="icon_solid_lock-24-48-96-a" d="M21.2107438,10.9090909 L20.0950413,10.9090909 L20.0950413,7.63636364 C19.9090909,3.38181818 16.3016529,0 11.9132231,0 C7.37603306,0 3.73140496,3.56363636 3.73140496,8 L3.73140496,10.9090909 L2.61570248,10.9090909 C1.98347107,10.9090909 1.5,11.3818182 1.5,12 L1.5,22.9090909 C1.5,23.5272727 1.98347107,24 2.61570248,24 L21.2107438,24 C21.8429752,24 22.3264463,23.5272727 22.3264463,22.9090909 L22.3264463,12 C22.3264463,11.3818182 21.8429752,10.9090909 21.2107438,10.9090909 Z M16.7479339,10.9090909 L7.0785124,10.9090909 L7.0785124,8 C7.0785124,5.38181818 9.23553719,3.27272727 11.9132231,3.27272727 C14.5909091,3.27272727 16.7479339,5.38181818 16.7479339,8 L16.7479339,10.9090909 Z"/>
  </defs>
  <g fill="none" fill-rule="evenodd">
    <mask id="icon_solid_lock-24-48-96-b" fill="#fff">
      <use xlink:href="#icon_solid_lock-24-48-96-a"/>
    </mask>
    <use fill="#595868" fill-rule="nonzero" xlink:href="#icon_solid_lock-24-48-96-a"/>
  </g>
</svg>
