<svg xmlns="http://www.w3.org/2000/svg" xmlns:xlink="http://www.w3.org/1999/xlink" width="24" height="24" viewBox="0 0 24 24">
  <defs>
    <polygon id="icon_solid_select_single-a" points="4.5 0 4.506 18.938 9.156 15.076 12.554 23.324 15.272 22.347 11.869 14.1 18.091 14.051"/>
  </defs>
  <g fill="none" fill-rule="evenodd">
    <mask id="icon_solid_select_single-b" fill="#fff">
      <use xlink:href="#icon_solid_select_single-a"/>
    </mask>
    <use fill="#595868" fill-rule="nonzero" xlink:href="#icon_solid_select_single-a"/>
  </g>
</svg>
