<svg xmlns="http://www.w3.org/2000/svg" xmlns:xlink="http://www.w3.org/1999/xlink" width="24" height="24" viewBox="0 0 24 24">
  <defs>
    <path id="icon_solid_collectedby-a" d="M10.5647978,6.31875 C8.64144585,6.31875 7.08226103,4.9050891 7.08226103,3.16125 C7.08226103,1.4174109 8.64144585,0.00375 10.5647978,0.00375 C12.4881497,0.00375 14.0473346,1.4174109 14.0473346,3.16125 C14.0473346,4.9050891 12.4881497,6.31875 10.5647978,6.31875 Z M15.6976103,12.07125 C15.9225405,13.2326735 15.4500615,14.4150049 14.4568015,15.17625 C14.4731338,15.2543039 14.4731338,15.3344461 14.4568015,15.4125 L13.4641544,23.04 C13.4043865,23.4036894 13.0405576,23.6609892 12.6369485,23.625 L8.64154412,23.625 C8.24007063,23.6633093 7.87609378,23.4092049 7.81433824,23.0475 L6.82169118,15.46875 C6.80560651,15.3894146 6.80560651,15.3080854 6.82169118,15.22875 C5.82907754,14.4719765 5.35626275,13.2930916 5.58088235,12.135 L6.02757353,9.85875 C6.34191176,8.20875 7.97150735,7.125 9.87821691,7.125 L11.4002757,7.125 C13.3069853,7.125 14.9365809,8.20875 15.2509191,9.85875 L15.6976103,12.07125 Z"/>
  </defs>
  <g fill="none" fill-rule="evenodd">
    <mask id="icon_solid_collectedby-b" fill="#fff">
      <use xlink:href="#icon_solid_collectedby-a"/>
    </mask>
    <use fill="#595868" fill-rule="nonzero" xlink:href="#icon_solid_collectedby-a"/>
  </g>
</svg>
