<svg xmlns="http://www.w3.org/2000/svg" xmlns:xlink="http://www.w3.org/1999/xlink" width="24" height="24" viewBox="0 0 24 24">
  <defs>
    <path id="icon_solid_split_left_16-32-64_1-a" d="M22.8,2.04545455 L1.2,2.04545455 C0.5372583,2.04545455 0,2.59492326 0,3.27272727 L0,15.5454545 L24,15.5454545 L24,3.27272727 C24,2.59492326 23.4627417,2.04545455 22.8,2.04545455 Z M22.8,14.3181818 L1.2,14.3181818 L1.2,3.27272727 L22.8,3.27272727 L22.8,14.3181818 Z M0,20.4545455 L0,16.7727273 L24,16.7727273 L24,20.4545455 C24,21.1323495 23.4627417,21.6818182 22.8,21.6818182 L1.2,21.6818182 C0.5372583,21.6818182 0,21.1323495 0,20.4545455 Z"/>
  </defs>
  <g fill="none" fill-rule="evenodd">
    <mask id="icon_solid_split_left_16-32-64_1-b" fill="#fff">
      <use xlink:href="#icon_solid_split_left_16-32-64_1-a"/>
    </mask>
    <use fill="#595868" fill-rule="nonzero" xlink:href="#icon_solid_split_left_16-32-64_1-a"/>
  </g>
</svg>
