<svg xmlns="http://www.w3.org/2000/svg" xmlns:xlink="http://www.w3.org/1999/xlink" width="24" height="24" viewBox="0 0 24 24">
  <defs>
    <path id="icon_solid_plus-a" d="M12,0 C5.37,0 0,5.37 0,12 C0,18.63 5.37,24 12,24 C18.63,24 24,18.63 24,12 C24,5.37 18.63,0 12,0 Z M19.2,13.2 L13.2,13.2 L13.2,19.2 L10.8,19.2 L10.8,13.2 L4.8,13.2 L4.8,10.8 L10.8,10.8 L10.8,4.8 L13.2,4.8 L13.2,10.8 L19.2,10.8 L19.2,13.2 Z"/>
  </defs>
  <g fill="none" fill-rule="evenodd">
    <mask id="icon_solid_plus-b" fill="#fff">
      <use xlink:href="#icon_solid_plus-a"/>
    </mask>
    <use fill="#595868" fill-rule="nonzero" xlink:href="#icon_solid_plus-a"/>
  </g>
</svg>
