<svg xmlns="http://www.w3.org/2000/svg" xmlns:xlink="http://www.w3.org/1999/xlink" width="24" height="24" viewBox="0 0 24 24">
  <defs>
    <path id="icon_solid_filter-a" d="M4.01848432,2.25 L20.2060945,2.25 C20.4442571,2.25 20.5372893,2.64660679 20.3809951,2.79578916 L13.8464104,11.8449734 C13.8026227,11.884431 13.7771043,11.9395867 13.7757059,11.9977943 L13.7757059,19.6388425 C13.7943109,19.9841088 13.6150358,20.3108517 13.3105447,20.486635 L11.1894096,21.6036835 C10.4860858,21.9457114 10.0544162,21.6364308 10.0544162,21.2070767 L10.0544162,11.9977943 C10.0491122,11.9265615 10.0203943,11.858915 9.97254784,11.8049488 L3.81381339,2.68663132 C3.74615761,2.6080271 3.73092806,2.49832251 3.77470649,2.40492853 C3.81848492,2.31153454 3.91342024,2.25120014 4.01848432,2.25 Z"/>
  </defs>
  <g fill="none" fill-rule="evenodd">
    <mask id="icon_solid_filter-b" fill="#fff">
      <use xlink:href="#icon_solid_filter-a"/>
    </mask>
    <use fill="#595868" fill-rule="nonzero" xlink:href="#icon_solid_filter-a"/>
  </g>
</svg>
