<svg xmlns="http://www.w3.org/2000/svg" xmlns:xlink="http://www.w3.org/1999/xlink" width="24" height="24" viewBox="0 0 24 24">
  <defs>
    <path id="icon_solid_number-a" d="M0,10.9749368 L3.54,7.8508743 L6,7.8508743 L6,19.0227493 L3.375,19.0227493 L3.375,10.8977493 C3.14484338,11.2336652 2.8942888,11.5526003 2.625,11.8524368 L1.4475,12.9005618 L0,10.9749368 Z M11.475,16.4552493 L11.475,16.5324368 L15.375,16.5324368 L15.375,19.0227493 L7.875,19.0227493 L7.875,17.0361868 L10.425,14.2614993 C11.145,13.446291 11.615,12.8897285 11.835,12.5918118 C12.0178558,12.3578355 12.1728219,12.0998737 12.29625,11.8239993 C12.3832405,11.6116908 12.4279619,11.3819081 12.4275,11.1496243 C12.4381844,10.8899468 12.3420467,10.638501 12.165,10.4630618 C11.9537377,10.2786828 11.6854877,10.1885955 11.415,10.2111868 C11.0690249,10.2177511 10.7305236,10.3213256 10.4325,10.5118118 C10.0314718,10.7676832 9.65465646,11.0656813 9.3075,11.4014993 L7.7775,9.4596243 C8.18781148,9.0428131 8.63639516,8.67255355 9.11625,8.3546243 C9.48750278,8.12942679 9.88472804,7.95866196 10.2975,7.8468118 C10.7677042,7.7242446 11.2501637,7.66556425 11.73375,7.6721243 C12.3482667,7.66036291 12.9580471,7.79054314 13.5225,8.0539993 C14.0249338,8.28517233 14.4538468,8.6707377 14.75625,9.1630618 C15.0451714,9.63170458 15.1967839,10.183914 15.19125,10.7474368 C15.202975,11.5682317 14.9860382,12.3737947 14.56875,13.0589993 C14.3216669,13.4652221 14.039118,13.8447794 13.725,14.1924368 C13.3675,14.5905618 12.6175,15.3448326 11.475,16.4552493 Z M21.18,13.0874368 C22.9025,13.3203535 23.76375,14.2073326 23.76375,15.7483743 C23.7917685,16.7143142 23.3688706,17.630593 22.63875,18.1858743 C21.87875,18.7817076 20.82375,19.0796243 19.47375,19.0796243 C18.9575587,19.0827418 18.4420252,19.0392581 17.9325,18.9496243 C17.4496478,18.898691 16.9739309,18.7868933 16.515,18.6164993 L16.515,16.1221243 C16.917329,16.3189007 17.3424647,16.4555665 17.77875,16.5283743 C18.2021869,16.6418488 18.6363273,16.7018315 19.0725,16.7071243 C19.5325029,16.7423448 19.9929533,16.6456632 20.4075,16.4268118 C20.6866506,16.2430461 20.8484753,15.9065134 20.8275,15.5533743 C20.8434228,15.2959602 20.7653061,15.0420808 20.61,14.8464993 C20.4121577,14.6525113 20.1677887,14.5229611 19.905,14.4727493 C19.4870007,14.3788899 19.0605306,14.3366413 18.63375,14.3468118 L18,14.3468118 L18,12.0758743 L18.6375,12.0758743 C20.0525,12.0758743 20.76,11.683166 20.76,10.8977493 C20.7718778,10.6351584 20.6512637,10.3862722 20.445,10.2477493 C20.1880242,10.0914829 19.895591,10.0168583 19.60125,10.0324368 C18.8696094,10.0568882 18.15948,10.3062789 17.55375,10.7514993 L16.395,8.7202493 C16.9053897,8.33177577 17.4718695,8.03797509 18.07125,7.8508743 C18.7122906,7.66781881 19.3733843,7.58034585 20.03625,7.5908743 C20.9187988,7.53661138 21.7955439,7.7761896 22.54875,8.2774368 C23.1368636,8.69465159 23.4821033,9.41342752 23.46,10.1746243 C23.4733447,10.8266824 23.2651651,11.4613412 22.875,11.9580618 C22.423671,12.496224 21.8329075,12.8742734 21.18,13.0427493 L21.18,13.0874368 Z"/>
  </defs>
  <g fill="none" fill-rule="evenodd">
    <mask id="icon_solid_number-b" fill="#fff">
      <use xlink:href="#icon_solid_number-a"/>
    </mask>
    <use fill="#595868" fill-rule="nonzero" xlink:href="#icon_solid_number-a"/>
  </g>
</svg>
