<svg xmlns="http://www.w3.org/2000/svg" xmlns:xlink="http://www.w3.org/1999/xlink" width="24" height="24" viewBox="0 0 24 24">
  <defs>
    <polygon id="star-a" points="12 17.77 18.18 21.5 16.54 14.47 22 9.74 14.81 9.13 12 2.5 9.19 9.13 2 9.74 7.46 14.47 5.82 21.5"/>
  </defs>
  <g fill="none" fill-rule="evenodd">
    <mask id="star-b" fill="#fff">
      <use xlink:href="#star-a"/>
    </mask>
    <use fill="#595868" fill-rule="nonzero" xlink:href="#star-a"/>
  </g>
</svg>
