<?xml version="1.0" encoding="UTF-8"?>
<svg width="24px" height="24px" viewBox="0 0 24 24" version="1.1" xmlns="http://www.w3.org/2000/svg" xmlns:xlink="http://www.w3.org/1999/xlink">
    <!-- Generator: Sketch 53 (72520) - https://sketchapp.com -->
    <title>ic/stop</title>
    <desc>Created with Sketch.</desc>
    <defs>
        <polygon id="path-1" points="6 6 18 6 18 18 6 18"></polygon>
    </defs>
    <g id="ic/stop" stroke="none" stroke-width="1" fill="none" fill-rule="evenodd">
        <mask id="mask-2" fill="white">
            <use xlink:href="#path-1"></use>
        </mask>
        <use fill="#363545" xlink:href="#path-1"></use>
    </g>
</svg>