<svg xmlns="http://www.w3.org/2000/svg" xmlns:xlink="http://www.w3.org/1999/xlink" width="24" height="24" viewBox="0 0 24 24">
  <defs>
    <polygon id="subdirectory_arrow_right-a" points="19.5 14.5 13.5 20.5 12.08 19.08 15.67 15.5 4.5 15.5 4.5 3.5 6.5 3.5 6.5 13.5 15.67 13.5 12.08 9.92 13.5 8.5"/>
  </defs>
  <g fill="none" fill-rule="evenodd">
    <mask id="subdirectory_arrow_right-b" fill="#fff">
      <use xlink:href="#subdirectory_arrow_right-a"/>
    </mask>
    <use fill="#595868" fill-rule="nonzero" xlink:href="#subdirectory_arrow_right-a"/>
  </g>
</svg>
