<svg xmlns="http://www.w3.org/2000/svg" xmlns:xlink="http://www.w3.org/1999/xlink" width="24" height="24" viewBox="0 0 24 24">
  <defs>
    <path id="swap_vertical_circle-a" d="M12,2 C6.48,2 2,6.48 2,12 C2,17.52 6.48,22 12,22 C17.52,22 22,17.52 22,12 C22,6.48 17.52,2 12,2 Z M6.5,9 L10,5.5 L13.5,9 L11,9 L11,13 L9,13 L9,9 L6.5,9 Z M17.5,15 L14,18.5 L10.5,15 L13,15 L13,11 L15,11 L15,15 L17.5,15 Z"/>
  </defs>
  <g fill="none" fill-rule="evenodd">
    <mask id="swap_vertical_circle-b" fill="#fff">
      <use xlink:href="#swap_vertical_circle-a"/>
    </mask>
    <use fill="#595868" fill-rule="nonzero" xlink:href="#swap_vertical_circle-a"/>
  </g>
</svg>
