<svg xmlns="http://www.w3.org/2000/svg" xmlns:xlink="http://www.w3.org/1999/xlink" width="24" height="24" viewBox="0 0 24 24">
  <defs>
    <path id="technician-a" d="M22.0517126,17.0692392 L17.910062,13.0385224 C17.9691731,12.7011119 18,12.3540903 18,12 C18,8.69142857 15.3085714,6 12,6 C8.69142857,6 6,8.69142857 6,12 C6,15.3085714 8.69142857,18 12,18 C12.3119016,18 12.6183186,17.9760813 12.9175133,17.9299818 L15.1738642,20.1263109 L14.8183356,22.538 C14.7844098,22.802 14.5469295,23 14.2642149,23 L9.74078069,23 C9.45806605,23 9.22058576,22.802 9.18666,22.538 L8.75693375,19.623 C8.06711004,19.348 7.43382926,18.985 6.84578281,18.545 L4.02994504,19.645 C3.78115616,19.733 3.47582435,19.645 3.34012133,19.403 L1.07840424,15.597 C0.942701211,15.355 0.999244139,15.058 1.21410726,14.893 L3.60021879,13.078 C3.55498445,12.726 3.52105869,12.363 3.52105869,12 C3.52105869,11.637 3.55498445,11.274 3.60021879,10.922 L1.21410726,9.107 C0.999244139,8.942 0.931392626,8.645 1.07840424,8.403 L3.34012133,4.597 C3.47582435,4.355 3.76984757,4.256 4.02994504,4.355 L6.84578281,5.455 C7.43382926,5.026 8.06711004,4.652 8.75693375,4.377 L9.18666,1.462 C9.22058576,1.198 9.45806605,1 9.74078069,1 L14.2642149,1 C14.5469295,1 14.7844098,1.198 14.8183356,1.462 L15.2480618,4.377 C15.9378855,4.652 16.5711663,5.015 17.1592127,5.455 L19.9750505,4.355 C20.2238394,4.267 20.5291712,4.355 20.6648742,4.597 L22.9265913,8.403 C23.0622943,8.645 23.0057514,8.942 22.7908883,9.107 L20.4047768,10.922 C20.4500111,11.274 20.4839369,11.626 20.4839369,12 C20.4839369,12.374 20.4500111,12.726 20.4047768,13.078 L22.7908883,14.893 C23.0057514,15.058 23.0622943,15.355 22.9265913,15.597 L22.0517126,17.0692392 Z M23.1334545,20.4176988 C23.3924245,20.6114856 23.3924245,21.063655 23.068712,21.3220374 L21.5796347,22.8077366 C21.3206648,23.0661191 20.9322098,23.0661191 20.6732399,22.8077366 L13.7260672,16.0745546 C12.23699,16.6559151 10.4889427,16.3329371 9.25883543,15.1056203 C7.96398563,13.813708 7.64027318,11.8758395 8.41718306,10.3255447 L11.2658526,13.1031562 L13.2081273,11.1652877 L10.4242003,8.38767615 C11.97802,7.67712436 13.9202947,7.93550683 15.2151445,9.22741917 C16.4452518,10.4547359 16.7689643,12.1988176 16.1862819,13.6845168 L23.1334545,20.4176988 Z"/>
  </defs>
  <g fill="none" fill-rule="evenodd">
    <use fill="#595868" fill-rule="nonzero" xlink:href="#technician-a"/>
  </g>
</svg>
