<?xml version="1.0" encoding="UTF-8"?>
<svg width="24px" height="24px" viewBox="0 0 24 24" version="1.1" xmlns="http://www.w3.org/2000/svg" xmlns:xlink="http://www.w3.org/1999/xlink">
    <!-- Generator: Sketch 51.1 (57501) - http://www.bohemiancoding.com/sketch -->
    <title>ic/viewers/text</title>
    <desc>Created with Sketch.</desc>
    <defs>
        <path d="M2.82909091,9.07769449 L0,18.7033629 L2.57454545,18.7033629 L3.01454545,16.9065715 L5.81818182,16.9065715 L6.25818182,18.7033629 L8.80363636,18.7033629 L5.95636364,9.07769449 L2.82909091,9.07769449 Z M3.49818182,14.7849137 C3.8569697,13.2822399 4.08969697,12.2742186 4.19636364,11.7608496 C4.3030303,11.2474806 4.37333333,10.8798335 4.40727273,10.6579084 C4.44606061,10.8985501 4.52848485,11.2996196 4.65454545,11.861117 C4.78060606,12.4226143 4.88606061,12.8744859 4.97090909,13.2167319 L5.33454545,14.7889244 L3.49818182,14.7849137 Z M14.6036364,13.6819726 L14.6036364,13.6178014 C15.0026759,13.5148762 15.3534381,13.2536318 15.5890909,12.8838442 C15.8408378,12.4801192 15.9683143,11.997864 15.9527273,11.5081758 C15.9930946,10.7773954 15.6625513,10.0822411 15.0945455,9.70336294 C14.5224242,9.31566241 13.6472727,9.12181214 12.4690909,9.12181214 L9.45454545,9.12181214 L9.45454545,18.7033629 L12.8290909,18.7033629 C13.6882546,18.7560298 14.5389165,18.4921967 15.2472727,17.9533629 C15.8316881,17.47009 16.1634067,16.7008716 16.1345455,15.8958763 C16.154411,15.3893578 16.0270023,14.8890912 15.7709091,14.4680688 C15.4766298,14.0641818 15.063821,13.7861769 14.6036364,13.6819726 Z M11.8,11.0830421 L12.4581818,11.0830421 C13.1854545,11.0830421 13.5490909,11.3504218 13.5490909,11.8851811 C13.5643682,12.1487776 13.4610096,12.403774 13.2727273,12.5669993 C13.041592,12.7349379 12.7671202,12.8151956 12.4909091,12.7956089 L11.8,12.7956089 L11.8,11.0830421 Z M12.6254545,16.6980153 L11.8,16.6980153 L11.8,14.6926678 L12.5781818,14.6926678 C12.8798838,14.6706417 13.1795484,14.7610383 13.4290909,14.9493522 C13.6283189,15.1277413 13.7378657,15.4007133 13.7236364,15.6833095 C13.7212121,16.3597801 13.3539394,16.6980153 12.6218182,16.6980153 L12.6254545,16.6980153 Z M21.2290909,16.5857159 C19.9587879,16.5857159 19.3236364,15.663256 19.3236364,13.8183362 C19.2866486,13.0857067 19.4500757,12.3577181 19.7927273,11.728764 C20.0752554,11.2428024 20.5676901,10.9552649 21.0909091,10.9707426 C21.4410103,10.9671398 21.7894668,11.0239769 22.1236364,11.1391918 C22.4510914,11.2500757 22.7717514,11.3840412 23.0836364,11.5402613 L23.8109091,9.49881749 C22.9725315,9.05405764 22.053951,8.82373617 21.1236364,8.8250207 C20.3414293,8.80363038 19.5681992,9.01268383 18.8836364,9.43063567 C18.2521357,9.83410475 17.745317,10.4378153 17.4290909,11.163256 C17.0774986,11.9794521 16.9031923,12.8747858 16.92,13.7782293 C16.92,15.3664645 17.2690909,16.5790314 17.9672727,17.4159298 C18.6654545,18.2528282 19.6678788,18.6819726 20.9745455,18.7033629 C21.8185824,18.7195844 22.6562236,18.539184 23.4327273,18.1739512 L23.4327273,15.9801009 C23.0760143,16.1425615 22.7118868,16.2844641 22.3418182,16.4052346 C21.9807692,16.524404 21.60596,16.585197 21.2290909,16.5857159 Z" id="path-1"></path>
    </defs>
    <g id="ic/viewers/text" stroke="none" stroke-width="1" fill="none" fill-rule="evenodd">
        <mask id="mask-2" fill="white">
            <use xlink:href="#path-1"></use>
        </mask>
        <use id="Mask" fill="#363545" fill-rule="nonzero" xlink:href="#path-1"></use>
    </g>
</svg>