<svg xmlns="http://www.w3.org/2000/svg" xmlns:xlink="http://www.w3.org/1999/xlink" width="24" height="24" viewBox="0 0 24 24">
  <defs>
    <path id="text_fields-a" d="M2.5,4.5 L2.5,7.5 L7.5,7.5 L7.5,19.5 L10.5,19.5 L10.5,7.5 L15.5,7.5 L15.5,4.5 L2.5,4.5 Z M21.5,9.5 L12.5,9.5 L12.5,12.5 L15.5,12.5 L15.5,19.5 L18.5,19.5 L18.5,12.5 L21.5,12.5 L21.5,9.5 Z"/>
  </defs>
  <g fill="none" fill-rule="evenodd">
    <mask id="text_fields-b" fill="#fff">
      <use xlink:href="#text_fields-a"/>
    </mask>
    <use fill="#595868" fill-rule="nonzero" xlink:href="#text_fields-a"/>
  </g>
</svg>
