<svg xmlns="http://www.w3.org/2000/svg" xmlns:xlink="http://www.w3.org/1999/xlink" width="24" height="24" viewBox="0 0 24 24">
  <defs>
    <path id="today-a" d="M19,4 L18,4 L18,2 L16,2 L16,4 L8,4 L8,2 L6,2 L6,4 L5,4 C3.89,4 3.01,4.9 3.01,6 L3,20 C3,21.1 3.89,22 5,22 L19,22 C20.1,22 21,21.1 21,20 L21,6 C21,4.9 20.1,4 19,4 Z M19,20 L5,20 L5,9 L19,9 L19,20 Z M7,11 L12,11 L12,16 L7,16 L7,11 Z"/>
  </defs>
  <g fill="none" fill-rule="evenodd">
    <mask id="today-b" fill="#fff">
      <use xlink:href="#today-a"/>
    </mask>
    <use fill="#595868" fill-rule="nonzero" xlink:href="#today-a"/>
  </g>
</svg>
