<?xml version="1.0" encoding="utf-8"?>
<!-- Generator: Adobe Illustrator 22.0.1, SVG Export Plug-In . SVG Version: 6.00 Build 0)  -->
<svg version="1.1" id="Capa_1" xmlns="http://www.w3.org/2000/svg" xmlns:xlink="http://www.w3.org/1999/xlink" x="0px" y="0px"
	 viewBox="0 0 24 24" style="enable-background:new 0 0 24 24;" xml:space="preserve">
<style type="text/css">
	.st0{fill:#55ACEE;}
</style>
<path class="st0" d="M12,1C5.9,1,1,5.9,1,12s4.9,11,11,11s11-4.9,11-11S18.1,1,12,1z M17.4,10.3c0,0.1,0,0.2,0,0.3
	c0,3.5-2.6,7.5-7.5,7.5c-1.5,0-2.9-0.4-4-1.2c0.2,0,0.4,0,0.6,0c1.2,0,2.4-0.4,3.3-1.1c-1.2,0-2.1-0.8-2.5-1.8c0.2,0,0.3,0,0.5,0
	c0.2,0,0.5,0,0.7-0.1c-1.2-0.2-2.1-1.3-2.1-2.6c0,0,0,0,0,0c0.4,0.2,0.8,0.3,1.2,0.3c-0.7-0.5-1.2-1.3-1.2-2.2
	c0-0.5,0.1-0.9,0.4-1.3c1.3,1.6,3.2,2.6,5.4,2.7c0-0.2-0.1-0.4-0.1-0.6c0-1.5,1.2-2.6,2.6-2.6c0.8,0,1.4,0.3,1.9,0.8
	c0.6-0.1,1.2-0.3,1.7-0.6c-0.2,0.6-0.6,1.1-1.2,1.5c0.5-0.1,1-0.2,1.5-0.4C18.4,9.4,17.9,9.9,17.4,10.3z"/>
</svg>
