<svg xmlns="http://www.w3.org/2000/svg" xmlns:xlink="http://www.w3.org/1999/xlink" width="24" height="24" viewBox="0 0 24 24">
  <defs>
    <path id="unfold_more-a" d="M12,5.83 L15.17,9 L16.58,7.59 L12,3 L7.41,7.59 L8.83,9 L12,5.83 Z M12,18.17 L8.83,15 L7.42,16.41 L12,21 L16.59,16.41 L15.17,15 L12,18.17 Z"/>
  </defs>
  <g fill="none" fill-rule="evenodd">
    <mask id="unfold_more-b" fill="#fff">
      <use xlink:href="#unfold_more-a"/>
    </mask>
    <use fill="#595868" fill-rule="nonzero" xlink:href="#unfold_more-a"/>
  </g>
</svg>
