<svg xmlns="http://www.w3.org/2000/svg" xmlns:xlink="http://www.w3.org/1999/xlink" width="24" height="24" viewBox="0 0 24 24">
  <defs>
    <path id="vertical_align_bottom-a" d="M16,13 L13,13 L13,3 L11,3 L11,13 L8,13 L12,17 L16,13 Z M4,19 L4,21 L20,21 L20,19 L4,19 Z"/>
  </defs>
  <g fill="none" fill-rule="evenodd">
    <mask id="vertical_align_bottom-b" fill="#fff">
      <use xlink:href="#vertical_align_bottom-a"/>
    </mask>
    <use fill="#595868" fill-rule="nonzero" xlink:href="#vertical_align_bottom-a"/>
  </g>
</svg>
