<svg xmlns="http://www.w3.org/2000/svg" xmlns:xlink="http://www.w3.org/1999/xlink" width="24" height="24" viewBox="0 0 24 24">
  <defs>
    <path id="left-a" d="M20.9440748,6.36591338 L12.483051,2.08064523 C12.2848103,1.97311826 12.0456435,1.97311826 11.8474028,2.08064523 L3.38637896,6.36591338 C3.14240404,6.48174973 2.99076892,6.73166687 3.00070483,7.00156149 L3.00070483,17.0005205 C2.98826505,17.273518 3.14139025,17.527161 3.38875967,17.6433107 L11.8497836,21.9285789 C11.9508338,21.9691518 12.0577344,21.9932648 12.1664173,22 C12.2751001,21.9932648 12.3820007,21.9691518 12.483051,21.9285789 L20.9440748,17.6433107 C21.1914443,17.527161 21.3445695,17.273518 21.3321297,17.0005205 L21.3321297,7.00156149 C21.3416427,6.73111275 21.1889789,6.48104378 20.9440748,6.36591338 Z M12.1664173,10.8987748 L4.90526845,7.22296701 L12.1664173,3.50906795 L19.4275661,7.18725644 L12.1664173,10.8987748 Z M19.9227526,16.5743744 L12.5235229,20.3335068 L12.5235229,11.5249001 L19.927514,7.77767116 L19.9227526,16.5743744 Z M11.0951002,11.9451095 L5.12429327,8.92704715 L5.12429327,16.133602 L11.0951002,19.128611 L11.0951002,11.9451095 Z M11.8093116,20.2858927 L4.41008191,16.5743744 L4.41008191,7.76576764 L11.8093116,11.5058545 L11.8093116,20.2858927 Z"/>
  </defs>
  <g fill="none" fill-rule="evenodd">
    <mask id="left-b" fill="#fff">
      <use xlink:href="#left-a"/>
    </mask>
    <use fill="#595868" fill-rule="nonzero" xlink:href="#left-a"/>
  </g>
</svg>
