<svg xmlns="http://www.w3.org/2000/svg" xmlns:xlink="http://www.w3.org/1999/xlink" width="24" height="24" viewBox="0 0 24 24">
  <defs>
    <path id="view_headline-a" d="M4,15 L20,15 L20,13 L4,13 L4,15 Z M4,19 L20,19 L20,17 L4,17 L4,19 Z M4,11 L20,11 L20,9 L4,9 L4,11 Z M4,5 L4,7 L20,7 L20,5 L4,5 Z"/>
  </defs>
  <g fill="none" fill-rule="evenodd">
    <mask id="view_headline-b" fill="#fff">
      <use xlink:href="#view_headline-a"/>
    </mask>
    <use fill="#595868" fill-rule="nonzero" xlink:href="#view_headline-a"/>
  </g>
</svg>
