<?xml version="1.0" encoding="UTF-8"?>
<svg width="24px" height="24px" viewBox="0 0 24 24" version="1.1" xmlns="http://www.w3.org/2000/svg" xmlns:xlink="http://www.w3.org/1999/xlink">
    <!-- Generator: Sketch 54.1 (76490) - https://sketchapp.com -->
    <title>wbs_type</title>
    <desc>Created with Sketch.</desc>
    <g id="wbs_type" stroke="none" stroke-width="1" fill="none" fill-rule="evenodd">
        <g id="wbs-type" transform="translate(2.000000, 2.000000)" fill="#595867" fill-rule="nonzero">
            <path d="M19,5 L1,5 C0.44771525,5 6.76353751e-17,4.55228475 0,4 L0,1 C-6.76353751e-17,0.44771525 0.44771525,1.01453063e-16 1,0 L19,0 C19.5522847,-1.01453063e-16 20,0.44771525 20,1 L20,4 C20,4.55228475 19.5522847,5 19,5 Z" id="parent"></path>
            <polygon id="stem" points="2 18 1 18 1 5 2 5"></polygon>
            <polygon id="Path" points="6 18 2 18 2 17 6 17"></polygon>
            <path d="M17.5,19.5 L7.5,19.5 C6.94771525,19.5 6.5,19.0522847 6.5,18.5 L6.5,16.5 C6.5,15.9477153 6.94771525,15.5 7.5,15.5 L17.5,15.5 C18.0522847,15.5 18.5,15.9477153 18.5,16.5 L18.5,18.5 C18.5,19.0522847 18.0522847,19.5 17.5,19.5 Z" id="2nd-child"></path>
            <polygon id="Path" points="6 10 2 10 2 9 6 9"></polygon>
            <path d="M18.5,12.5 L7.5,12.5 C6.94771525,12.5 6.5,12.0522847 6.5,11.5 L6.5,8.5 C6.5,7.94771525 6.94771525,7.5 7.5,7.5 L18.5,7.5 C19.0522847,7.5 19.5,7.94771525 19.5,8.5 L19.5,11.5 C19.5,12.0522847 19.0522847,12.5 18.5,12.5 Z" id="1st-child"></path>
        </g>
    </g>
</svg>