<?xml version="1.0" encoding="UTF-8"?>
<svg width="22px" height="22px" viewBox="0 0 22 22" version="1.1" xmlns="http://www.w3.org/2000/svg" xmlns:xlink="http://www.w3.org/1999/xlink">
    <!-- Generator: Sketch 58 (84663) - https://sketch.com -->
    <title>weight</title>
    <desc>Created with Sketch.</desc>
    <g id="weight" stroke="none" stroke-width="1" fill="none" fill-rule="evenodd">
        <g id="Group" transform="translate(2.000000, 2.000000)" fill="#363545" fill-rule="nonzero">
            <g id="weight" transform="translate(0.000000, 6.543300)">
                <path d="M0.445963707,9.69971062 L3.23323687,0.780436487 C3.3447278,0.33447278 3.79069151,0 4.34814614,0 L13.8248749,0 C14.2708386,0 14.7168023,0.33447278 14.9397842,0.780436487 L17.6155664,9.69971062 C17.8385483,10.3686562 17.2810936,11.1490927 16.5006571,11.1490927 L1.56087297,11.1490927 C0.780436487,11.1490927 0.222981853,10.3686562 0.445963707,9.69971062 Z" id="Path"></path>
            </g>
            <path d="M9.19046581,-4.4408921e-16 C6.88111467,-4.4408921e-16 5.00685867,1.874256 5.00685867,4.18360715 C5.00685867,6.4929583 6.88111467,8.3672143 9.19046581,8.3672143 C11.499817,8.3672143 13.374073,6.4929583 13.374073,4.18360715 C13.374073,1.874256 11.499817,-4.4408921e-16 9.19046581,-4.4408921e-16 Z M9.19046581,6.72046541 C7.7920227,6.72046541 6.65360756,5.58205026 6.65360756,4.18360715 C6.65360756,2.78516403 7.7920227,1.64674889 9.19046581,1.64674889 C10.5889089,1.64674889 11.7273241,2.78516403 11.7273241,4.18360715 C11.7273241,5.58205026 10.5889089,6.72046541 9.19046581,6.72046541 Z" id="stop_circle_outline-a"></path>
        </g>
    </g>
</svg>