<svg xmlns="http://www.w3.org/2000/svg" xmlns:xlink="http://www.w3.org/1999/xlink" width="24" height="24" viewBox="0 0 24 24">
  <defs>
    <path id="zoom_center-a" d="M5.57142857,14.5714286 L3,14.5714286 L3,21 L9.42857143,21 L9.42857143,18.4285714 L5.57142857,18.4285714 L5.57142857,14.5714286 Z M3,9.42857143 L5.57142857,9.42857143 L5.57142857,5.57142857 L9.42857143,5.57142857 L9.42857143,3 L3,3 L3,9.42857143 Z M18.4285714,18.4285714 L14.5714286,18.4285714 L14.5714286,21 L21,21 L21,14.5714286 L18.4285714,14.5714286 L18.4285714,18.4285714 Z M14.5714286,3 L21,3 L21,9.42857143 L18.4285714,9.42857143 L18.4285714,5.57142857 L14.5714286,5.57142857 L14.5714286,3 Z M12,14.5714286 C10.5798392,14.5714286 9.42857143,13.4201608 9.42857143,12 C9.42857143,10.5798392 10.5798392,9.42857143 12,9.42857143 C13.4201608,9.42857143 14.5714286,10.5798392 14.5714286,12 C14.5714286,13.4201608 13.4201608,14.5714286 12,14.5714286 Z"/>
  </defs>
  <g fill="none" fill-rule="evenodd">
    <mask id="zoom_center-b" fill="#fff">
      <use xlink:href="#zoom_center-a"/>
    </mask>
    <use fill="#595868" fill-rule="nonzero" xlink:href="#zoom_center-a"/>
  </g>
</svg>
